<?xml version="1.0" standalone="no"?>
<!DOCTYPE svg PUBLIC "-//W3C//DTD SVG 1.1//EN" "http://www.w3.org/Graphics/SVG/1.1/DTD/svg11.dtd" >
<svg xmlns="http://www.w3.org/2000/svg" xmlns:xlink="http://www.w3.org/1999/xlink" version="1.1">
<metadata></metadata>
<defs>
<font id="montserratlight" horiz-adv-x="1263" >
<font-face units-per-em="2048" ascent="1638" descent="-410" />
<missing-glyph horiz-adv-x="614" />
<glyph unicode="&#xfb01;" horiz-adv-x="1210" d="M88 926v127h139v121q0 86 29 156t78 113.5t110.5 67t128.5 23.5q114 -3 195 -55l-4 -144q-97 54 -189 54q-83 0 -136.5 -52t-53.5 -145v-139h309v-127h-309v-926h-158v926h-139zM831 1386q0 47 30 78t75 31q44 0 74 -31t30 -78q0 -46 -30 -77t-74 -31t-74.5 31t-30.5 77z M858 0v1077h158v-1077h-158z" />
<glyph unicode="&#xfb02;" horiz-adv-x="1249" d="M88 922v122h139v150q0 151 98.5 249.5t247.5 96.5q115 -3 197 -51l-4 -146q-75 57 -164 60q-92 2 -154.5 -64.5t-62.5 -167.5v-127h309v-122h-309v-922h-158v922h-139zM885 0v1520h159v-1520h-159z" />
<glyph horiz-adv-x="0" />
<glyph unicode="&#xd;" horiz-adv-x="614" />
<glyph horiz-adv-x="0" />
<glyph horiz-adv-x="0" />
<glyph unicode=" "  horiz-adv-x="614" />
<glyph unicode="&#x09;" horiz-adv-x="614" />
<glyph unicode="&#xa0;" horiz-adv-x="614" />
<glyph unicode="!" horiz-adv-x="415" d="M127 88q0 44 28.5 74.5t71.5 30.5q41 0 70 -30.5t29 -74.5t-29 -74t-70 -30q-43 0 -71.5 30t-28.5 74zM150 1063v346h153v-346l-22 -635h-107z" />
<glyph unicode="&#x22;" horiz-adv-x="641" d="M123 973v461h127v-461h-127zM391 973v461h127v-461h-127z" />
<glyph unicode="#" horiz-adv-x="1470" d="M72 381l10 125h297l51 409h-293l10 125h297l50 394h122l-49 -394h414l49 394h121l-49 -394h293l-9 -125h-299l-51 -409h293l-10 -125h-297l-47 -381h-123l47 381h-412l-47 -381h-123l48 381h-293zM502 506h413l52 409h-414z" />
<glyph unicode="$" horiz-adv-x="1251" d="M66 213l73 141q99 -94 226.5 -147t250.5 -53q156 0 246 59.5t90 163.5q0 55 -22 98.5t-61 71.5t-90 52t-109 40t-119.5 36t-119.5 40t-109.5 52t-90.5 71t-61.5 99t-22.5 134q0 152 114 250t306 115v247h125l2 -245q111 -6 217 -41t187 -90l-70 -146q-92 60 -197 89.5 t-198 29.5q-139 0 -222 -52.5t-83 -144.5q0 -59 27.5 -104.5t74.5 -74.5t107.5 -52t127 -43t133.5 -41.5t127.5 -53.5t107 -74t73.5 -107t27 -148q0 -161 -120 -264.5t-319 -122.5l-2 -270h-125v268q-142 9 -273.5 67t-227.5 150z" />
<glyph unicode="%" horiz-adv-x="1931" d="M88 1012q0 201 96.5 314.5t268.5 113.5t269 -113.5t97 -314.5q0 -202 -97 -314t-269 -112t-268.5 112t-96.5 314zM201 1012q0 -157 65.5 -241.5t186.5 -84.5t186.5 84.5t65.5 241.5t-65.5 242t-186.5 85t-186.5 -85t-65.5 -242zM338 0l1073 1434h158l-1071 -1434h-160z M1112 420q0 201 96.5 314.5t268.5 113.5t269 -113.5t97 -314.5q0 -202 -97 -314t-269 -112t-268.5 112t-96.5 314zM1225 420q0 -157 65.5 -241.5t186.5 -84.5t186.5 84.5t65.5 241.5t-65.5 242.5t-186.5 85.5t-186.5 -85.5t-65.5 -242.5z" />
<glyph unicode="&#x26;" horiz-adv-x="1329" d="M119 385q0 60 18.5 113.5t47 93t73.5 77.5t87 64.5t99 57.5q-147 193 -147 342q0 134 97 220.5t253 86.5q148 0 240 -80t92 -207q0 -47 -13 -89t-40.5 -78.5t-56 -64.5t-75.5 -59t-81 -50.5t-90 -49.5q121 -140 352 -365q79 116 145 279l109 -82q-69 -159 -162 -289 l248 -244l-86 -86l-240 238q-203 -219 -444 -219q-180 0 -303 111.5t-123 279.5zM254 395q0 -120 85.5 -198t211.5 -78q186 0 348 182q-278 278 -385 404q-59 -33 -101 -62.5t-80.5 -67.5t-58.5 -83t-20 -97zM428 1133q0 -116 125 -285q57 30 92.5 50t78.5 50.5t67 58.5 t40.5 66t16.5 80q0 80 -55 130t-146 50q-98 0 -158.5 -57t-60.5 -143z" />
<glyph unicode="'" horiz-adv-x="372" d="M123 973v461h127v-461h-127z" />
<glyph unicode="(" horiz-adv-x="618" d="M178 633q0 258 63 486.5t181 400.5h145q-113 -173 -175 -402t-62 -485t62 -485t175 -402h-145q-118 172 -181 400.5t-63 486.5z" />
<glyph unicode=")" horiz-adv-x="651" d="M180 -254q114 174 176 403t62 484t-62 484t-176 403h146q118 -171 180.5 -399.5t62.5 -487.5t-62.5 -487.5t-180.5 -399.5h-146z" />
<glyph unicode="*" horiz-adv-x="673" d="M55 1067l193 109l-193 108l45 86l193 -115l-2 222h90v-222l190 113l45 -84l-194 -108l194 -109l-45 -84l-192 113l2 -222h-90l2 222l-193 -113z" />
<glyph unicode="+" horiz-adv-x="1005" d="M76 602v117h373v371h110v-371h371v-117h-371v-369h-110v369h-373z" />
<glyph unicode="," horiz-adv-x="403" d="M86 -145l68 147q-45 23 -45 84q0 44 27.5 73t68.5 29t69.5 -28t28.5 -74q0 -40 -31 -86l-96 -145h-90z" />
<glyph unicode="-" horiz-adv-x="745" d="M131 561v117h481v-117h-481z" />
<glyph unicode="." horiz-adv-x="407" d="M104 88q0 44 29 74.5t72 30.5q41 0 69.5 -30.5t28.5 -74.5t-28.5 -74t-69.5 -30q-43 0 -72 30t-29 74z" />
<glyph unicode="/" horiz-adv-x="649" d="M-23 -250l639 1929h142l-641 -1929h-140z" />
<glyph unicode="0" d="M100 719q0 347 138 534t395 187q255 0 392.5 -187t137.5 -534q0 -349 -137.5 -536t-392.5 -187q-257 0 -395 187t-138 536zM264 719q0 -293 93 -441.5t276 -148.5q180 0 273 149t93 441t-92.5 439t-273.5 147q-369 0 -369 -586z" />
<glyph unicode="1" d="M233 1284v152h502v-1436h-164v1284h-338z" />
<glyph unicode="2" d="M100 1243q109 94 239.5 146.5t260.5 52.5q205 0 329 -95.5t124 -256.5q0 -190 -265 -465l-464 -473h815v-152h-1024v133l561 582q96 97 151.5 191t55.5 163q0 105 -81 165t-222 60q-101 0 -210 -47t-198 -129z" />
<glyph unicode="3" d="M55 135l72 135q86 -64 194 -99.5t220 -35.5q187 0 294 82t107 217t-106 206t-299 71h-191v100l477 471h-698l-2 152h907v-109l-502 -498l88 -4q223 -11 354.5 -111.5t131.5 -271.5q0 -200 -149.5 -323t-403.5 -123q-133 0 -265 38.5t-229 102.5z" />
<glyph unicode="4" d="M84 381v131l539 924h161l-526 -904h545v383h153v-383h226v-151h-226v-381h-153v381h-719z" />
<glyph unicode="5" d="M94 152l68 133q94 -66 207.5 -104t216.5 -38q174 0 275.5 85t101.5 231q0 129 -101.5 205.5t-271.5 76.5q-82 0 -197.5 -10.5t-193.5 -28.5v734h876v-152h-723v-414q123 21 262 21q235 0 378 -118t143 -304q0 -215 -145 -344t-388 -129q-125 0 -262.5 42.5t-245.5 113.5z " />
<glyph unicode="6" d="M115 684q0 228 72 399.5t208 265t318 93.5q98 0 208 -28t201 -75l-65 -127q-154 88 -334 88q-232 0 -347.5 -175.5t-96.5 -477.5q47 130 160 200.5t274 70.5q214 0 337.5 -122t123.5 -331q0 -217 -134 -344t-358 -127q-266 0 -416.5 181t-150.5 509zM315 457 q0 -43 13 -86.5t41 -86t69 -75t101.5 -52.5t132.5 -20q156 0 252 89.5t96 242.5q0 146 -91 230.5t-245 84.5q-167 0 -268 -96t-101 -231z" />
<glyph unicode="7" d="M113 1073v363h1058v-133l-641 -1303h-174l637 1284h-733v-211h-147z" />
<glyph unicode="8" d="M104 399q0 135 82 231t226 138q-114 43 -177 125t-63 194q0 164 124 259.5t335 95.5q214 0 337.5 -96.5t123.5 -264.5q0 -110 -61 -190.5t-171 -122.5q141 -42 221 -137.5t80 -229.5q0 -190 -141.5 -298.5t-386.5 -108.5q-246 0 -387.5 107.5t-141.5 297.5zM258 416 q0 -136 99 -212.5t276 -76.5q175 0 274 76t99 211q0 130 -99.5 204t-275.5 74q-175 0 -274 -73.5t-99 -202.5zM313 1071q0 -116 84.5 -181t235.5 -65q150 0 233.5 65t83.5 181q0 117 -83 181.5t-234 64.5t-235.5 -64.5t-84.5 -181.5z" />
<glyph unicode="9" d="M102 969q0 218 132.5 345.5t355.5 127.5q264 0 413.5 -181.5t149.5 -510.5q0 -344 -160.5 -550t-433.5 -206q-99 0 -208.5 27.5t-196.5 74.5l65 127q70 -43 157.5 -66.5t172.5 -23.5q229 0 344 175.5t96 477.5q-47 -130 -158 -200t-270 -70q-213 0 -336 121.5t-123 331.5 zM256 967q0 -146 89.5 -231t242.5 -85q167 0 266.5 96.5t97.5 231.5q1 54 -20 108.5t-61.5 102t-110.5 77t-158 29.5q-156 0 -251 -88t-95 -241z" />
<glyph unicode=":" horiz-adv-x="407" d="M104 88q0 44 29 74.5t72 30.5q41 0 69.5 -30.5t28.5 -74.5t-28.5 -74t-69.5 -30q-43 0 -72 30t-29 74zM104 696q0 44 29 74.5t72 30.5q41 0 69.5 -30.5t28.5 -74.5t-28.5 -74t-69.5 -30q-43 0 -72 30t-29 74z" />
<glyph unicode=";" horiz-adv-x="405" d="M86 -145l68 147q-45 23 -45 84q0 44 27.5 73t68.5 29t69.5 -28t28.5 -74q0 -40 -31 -86l-96 -145h-90zM104 696q0 44 29 74.5t72 30.5q41 0 69.5 -30.5t28.5 -74.5t-28.5 -74t-69.5 -30q-43 0 -72 30t-29 74z" />
<glyph unicode="&#x3c;" horiz-adv-x="1005" d="M76 594v149l854 381v-131l-744 -325l744 -324v-131z" />
<glyph unicode="=" horiz-adv-x="1005" d="M76 391v117h854v-117h-854zM76 813v117h854v-117h-854z" />
<glyph unicode="&#x3e;" horiz-adv-x="1005" d="M76 219v131l743 326l-743 323v131l854 -380v-150z" />
<glyph unicode="?" horiz-adv-x="868" d="M12 1047q7 173 114 268.5t286 95.5q175 0 281 -85.5t106 -244.5q0 -68 -18 -124t-47 -95t-64 -74.5t-70 -69t-64 -70t-47 -87t-18 -110.5h-127q0 69 17 125.5t43.5 95t59 72.5t65.5 65.5t59.5 65.5t43.5 81.5t17 104.5q0 103 -69 157t-183 54q-116 0 -183 -58t-73 -170z M303 88q0 44 28.5 74.5t71.5 30.5q41 0 70 -30.5t29 -74.5t-29 -74t-70 -30q-43 0 -71.5 30t-28.5 74z" />
<glyph unicode="@" horiz-adv-x="2019" d="M82 543q0 255 123 463t338 326t477 118q196 0 366.5 -68t291.5 -186.5t190 -286t69 -360.5q0 -240 -99 -385.5t-259 -145.5q-90 0 -150 49.5t-69 139.5l-2 74q-61 -110 -166.5 -170t-235.5 -60q-206 0 -348.5 141t-142.5 357q0 141 59.5 255.5t169 181.5t248.5 67 q137 0 242.5 -65t140.5 -144v194h152v-770q0 -67 32 -103t84 -36q95 0 158.5 116t63.5 300q0 166 -57.5 310.5t-160.5 249t-252 164.5t-325 60q-227 0 -413.5 -103t-293 -283t-106.5 -400q0 -213 102.5 -385t282 -268.5t401.5 -96.5q94 0 201.5 29.5t183.5 81.5l58 -111 q-85 -56 -210 -90.5t-233 -34.5q-193 0 -362 66.5t-289.5 182t-190 278.5t-69.5 348zM629 555q0 -153 96 -255.5t246 -102.5q153 0 249.5 102t96.5 256q0 151 -97 250.5t-251 99.5q-149 0 -244.5 -99.5t-95.5 -250.5z" />
<glyph unicode="A" horiz-adv-x="1470" d="M8 0l643 1434h170l641 -1434h-178l-162 367h-780l-160 -367h-174zM410 518h647l-326 737z" />
<glyph unicode="B" horiz-adv-x="1466" d="M217 0v1434h604q217 0 341 -95.5t124 -263.5q0 -126 -70.5 -211.5t-195.5 -111.5q155 -23 241.5 -119t86.5 -244q0 -183 -137.5 -286t-381.5 -103h-612zM381 152h432h10q168 0 262 66q97 68 97 192q0 120 -98 186q-96 66 -266 66h-5h-432v-510zM381 813h432q145 0 225 62 t80 176q0 110 -80 170.5t-225 60.5h-432v-469z" />
<glyph unicode="C" horiz-adv-x="1433" d="M82 719q0 197 99.5 362.5t271 261t376.5 95.5q146 0 283.5 -55.5t241.5 -153.5l-99 -119q-84 84 -195 131t-229 47q-119 0 -227 -44.5t-186 -120.5t-124 -181.5t-46 -222.5q0 -155 77.5 -286.5t212 -208.5t293.5 -77q117 0 227.5 45.5t196.5 126.5l101 -108 q-108 -102 -247 -159.5t-286 -57.5q-153 0 -290 56.5t-236 153t-157 231t-58 284.5z" />
<glyph unicode="D" horiz-adv-x="1615" d="M217 0v1434h580q206 0 375 -93.5t265.5 -258t96.5 -365.5q0 -151 -57 -284t-155.5 -228t-236.5 -150t-294 -55h-574zM381 152h418q158 0 288 73t205.5 202.5t75.5 287.5q0 159 -76 289.5t-208 204t-291 73.5h-412v-1130z" />
<glyph unicode="E" horiz-adv-x="1333" d="M217 0v1434h973v-152h-809v-481h723v-150h-723v-499h836v-152h-1000z" />
<glyph unicode="F" horiz-adv-x="1153" d="M217 0v1434h911v-152h-747v-514h670v-150h-670v-618h-164z" />
<glyph unicode="G" horiz-adv-x="1542" d="M82 717q0 198 100.5 364t274 261.5t381.5 95.5q147 0 285.5 -52.5t242.5 -144.5l-94 -119q-88 79 -201.5 122.5t-232.5 43.5q-161 0 -297 -76t-214.5 -207.5t-78.5 -287.5q0 -157 79 -289t215.5 -208.5t297.5 -76.5q200 0 377 121v436h145v-520q-107 -86 -248.5 -136 t-284.5 -50q-205 0 -376.5 96t-271 262.5t-99.5 364.5z" />
<glyph unicode="H" horiz-adv-x="1626" d="M217 0v1434h164v-650h864v650h164v-1434h-164v635h-864v-635h-164z" />
<glyph unicode="I" horiz-adv-x="598" d="M217 0v1434h164v-1434h-164z" />
<glyph unicode="J" horiz-adv-x="989" d="M0 197l82 127q67 -81 148 -124.5t165 -43.5q119 0 182.5 71t63.5 205v850h-512v152h678v-1006q0 -208 -108.5 -321t-301.5 -113q-240 0 -397 203z" />
<glyph unicode="K" horiz-adv-x="1431" d="M217 0v1434h164v-834l770 834h195l-570 -625l613 -809h-201l-529 682l-278 -307v-375h-164z" />
<glyph unicode="L" horiz-adv-x="1058" d="M217 0v1434h164v-1282h629v-152h-793z" />
<glyph unicode="M" horiz-adv-x="1886" d="M217 0v1434h203l524 -1041l522 1041h201v-1434h-151l-3 1192l-522 -1040h-98l-520 1040v-1192h-156z" />
<glyph unicode="N" horiz-adv-x="1628" d="M217 0v1434h170l860 -1166v1166h162v-1434h-168l-860 1163v-1163h-164z" />
<glyph unicode="O" horiz-adv-x="1665" d="M82 717q0 149 59 282.5t159 229.5t239.5 152.5t294.5 56.5q206 0 378 -95.5t271.5 -261.5t99.5 -364t-99.5 -364.5t-271.5 -262.5t-378 -96q-155 0 -294.5 56.5t-239.5 153t-159 230.5t-59 283zM248 717q0 -117 47 -223.5t126 -183t187 -122t226 -45.5q157 0 291 77 t212 209t78 288q0 117 -46 222.5t-124.5 181.5t-185.5 120.5t-225 44.5q-157 0 -292 -75.5t-214.5 -207t-79.5 -286.5z" />
<glyph unicode="P" horiz-adv-x="1370" d="M217 0v1434h539q265 0 412 -126.5t147 -355.5q0 -236 -146.5 -366.5t-412.5 -130.5h-375v-455h-164zM381 606h369q195 0 301 87.5t106 254.5q0 163 -106 248.5t-301 85.5h-369v-676z" />
<glyph unicode="Q" horiz-adv-x="1689" d="M82 717q0 149 59 282.5t159 229.5t239.5 152.5t294.5 56.5q206 0 378 -95.5t271.5 -261.5t99.5 -364q0 -253 -157 -446.5t-402 -254.5q154 -163 295 -163q125 0 276 129l72 -117q-172 -158 -367 -158q-243 0 -450 287h-16q-155 0 -294.5 56.5t-239.5 153t-159 230.5 t-59 283zM248 717q0 -117 47 -223.5t126 -183t187 -122t226 -45.5q157 0 291 77t212 209t78 288q0 117 -46 222.5t-124.5 181.5t-185.5 120.5t-225 44.5q-157 0 -292 -75.5t-214.5 -207t-79.5 -286.5z" />
<glyph unicode="R" horiz-adv-x="1480" d="M217 0v1434h545q268 0 416.5 -126.5t148.5 -355.5q0 -176 -83.5 -294.5t-239.5 -168.5l337 -489h-186l-301 459q-58 -4 -92 -4h-381v-455h-164zM381 606h381q196 0 301.5 87t105.5 255q0 163 -105.5 248.5t-301.5 85.5h-381v-676z" />
<glyph unicode="S" horiz-adv-x="1251" d="M66 213l73 141q99 -94 226.5 -147t250.5 -53q156 0 246 59.5t90 163.5q0 55 -22 98.5t-61 71.5t-90 52t-109 40t-119.5 36t-119.5 40t-109.5 52t-90.5 71t-61.5 99t-22.5 134q0 168 136 268.5t360 100.5q122 0 243 -36t212 -97l-70 -146q-92 60 -197 89.5t-198 29.5 q-139 0 -222 -52.5t-83 -144.5q0 -59 27.5 -104.5t74.5 -74.5t107.5 -52t127 -43t133.5 -41.5t127.5 -53.5t107 -74t73.5 -107t27 -148q0 -177 -143.5 -284t-375.5 -107q-153 0 -298.5 60t-249.5 159z" />
<glyph unicode="T" horiz-adv-x="1142" d="M23 1282v152h1099v-152h-469v-1282h-164v1282h-466z" />
<glyph unicode="U" horiz-adv-x="1572" d="M184 590v844h164v-844q0 -211 117.5 -329t322.5 -118t321 118t116 329v844h164v-844q0 -281 -159.5 -438.5t-441.5 -157.5q-283 0 -443.5 157.5t-160.5 438.5z" />
<glyph unicode="V" horiz-adv-x="1361" d="M12 1434h176l494 -1250l496 1250h172l-586 -1434h-170z" />
<glyph unicode="W" horiz-adv-x="2082" d="M12 1434h176l394 -1250l389 1250h164l393 -1250l389 1250h170l-481 -1434h-168l-387 1214l-392 -1214h-167z" />
<glyph unicode="X" horiz-adv-x="1361" d="M45 0l526 737l-489 697h192l396 -560l399 560h193l-488 -689l529 -745h-197l-436 604l-432 -604h-193z" />
<glyph unicode="Y" horiz-adv-x="1280" d="M8 1434h170l465 -752l459 752h168l-545 -936v-498h-162v494z" />
<glyph unicode="Z" horiz-adv-x="1351" d="M88 0v127l950 1155h-923v152h1138v-127l-950 -1155h961l-2 -152h-1174z" />
<glyph unicode="[" horiz-adv-x="684" d="M217 -254v1774h404v-134h-259v-1507h259v-133h-404z" />
<glyph unicode="\" horiz-adv-x="915" d="M133 1679h141l639 -1929h-139z" />
<glyph unicode="]" horiz-adv-x="843" d="M223 -121h258v1507h-258v134h404v-1774h-404v133z" />
<glyph unicode="^" horiz-adv-x="1052" d="M72 266l381 813h149l381 -813h-131l-326 707l-323 -707h-131z" />
<glyph unicode="_" horiz-adv-x="1136" d="M0 -313h1135v-105h-1135v105z" />
<glyph unicode="`" horiz-adv-x="716" d="M145 1462l164 74l246 -276h-154z" />
<glyph unicode="a" horiz-adv-x="1181" d="M102 319q0 142 107.5 225.5t296.5 84.5h354v67q0 120 -74 187t-215 67q-165 0 -342 -125l-67 113q114 75 212 110t228 35q198 0 306 -98.5t110 -271.5l2 -713h-156v168q-128 -174 -395 -174q-165 0 -266 92.5t-101 232.5zM252 326q0 -90 67.5 -144.5t180.5 -54.5 q138 0 234.5 64.5t127.5 179.5v131h-336q-274 0 -274 -176z" />
<glyph unicode="b" horiz-adv-x="1384" d="M205 0v1520h160v-674q60 113 167.5 175t247.5 62q229 0 373.5 -152.5t144.5 -393.5q0 -240 -143 -391.5t-371 -151.5q-143 0 -250.5 61.5t-168.5 175.5v-231h-160zM365 541q0 -179 108.5 -292.5t278.5 -113.5q169 0 277 114.5t108 291.5q0 175 -108.5 290t-276.5 115 q-170 0 -278.5 -114t-108.5 -291z" />
<glyph unicode="c" horiz-adv-x="1148" d="M86 539q0 239 150.5 391.5t384.5 152.5q259 0 415 -159l-88 -111q-130 127 -321 127q-168 0 -275.5 -111.5t-107.5 -289.5q0 -179 107.5 -291.5t275.5 -112.5q217 0 334 139l92 -94q-73 -89 -183.5 -137.5t-248.5 -48.5q-235 0 -385 152t-150 393z" />
<glyph unicode="d" horiz-adv-x="1390" d="M86 541q0 241 144.5 392.5t373.5 151.5q144 0 253 -62.5t169 -178.5v676h160v-1520h-160v231q-60 -115 -168 -177t-252 -62q-230 0 -375 153.5t-145 395.5zM246 537q0 -179 109.5 -293.5t281.5 -114.5q170 0 279.5 114.5t109.5 293.5t-109.5 294t-279.5 115 q-171 0 -281 -115t-110 -294z" />
<glyph unicode="e" horiz-adv-x="1204" d="M86 539q0 240 149.5 391t385.5 153q255 0 385 -162q119 -148 119 -395q0 -23 -1 -47h-880q20 -160 126.5 -256t264.5 -96q203 0 334 137l88 -92q-77 -86 -188.5 -132t-245.5 -46q-238 0 -387.5 152t-149.5 393zM244 606h737q-8 157 -105 250.5t-255 93.5 q-155 0 -257.5 -93.5t-119.5 -250.5z" />
<glyph unicode="f" horiz-adv-x="663" d="M88 920v124h139v121q0 167 101 265q100 96 239 96h6q130 0 232 -76l-66 -123q-77 55 -164 55h-6q-77 0 -129 -51q-55 -53 -55 -145v-142h309v-124h-309v-920h-158v920h-139z" />
<glyph unicode="g" horiz-adv-x="1302" d="M86 567q0 150 61 267t172 182.5t254 66.5h5q133 0 234 -57q104 -59 163 -168v219h160v-964q0 -235 -148 -374.5t-395 -139.5q-240 3 -442 157l73 117q162 -134 363 -137q177 0 283 101.5t106 271.5v163q-57 -108 -159.5 -166.5t-237.5 -58.5q-218 0 -355 145.5 t-137 374.5zM236 563q2 -168 105 -276.5t265 -108.5q161 0 265 109t104 276q0 169 -104 278t-265 109q-162 0 -265 -109t-105 -278z" />
<glyph unicode="h" horiz-adv-x="1355" d="M205 0v1520h160v-684q107 244 419 247q193 0 301.5 -111t108.5 -308v-664h-160v623q0 144 -81 225.5t-224 81.5q-169 -1 -266.5 -111.5t-97.5 -290.5v-528h-160z" />
<glyph unicode="i" horiz-adv-x="546" d="M168 1386q0 47 30 78t74 31q45 0 75 -31t30 -78q0 -46 -30.5 -77t-74.5 -31t-74 31t-30 77zM195 0v1077h157v-1077h-157z" />
<glyph unicode="j" horiz-adv-x="546" d="M-180 -330l57 127q74 -55 156 -55h5q69 0 108 48q42 50 42 149v1138h160v-1118q0 -177 -87.5 -269.5t-221.5 -92.5q-124 0 -219 73zM160 1386q0 47 31 79t77 32q47 0 78 -32t31 -79q0 -46 -31 -77t-78 -31q-46 0 -77 31t-31 77z" />
<glyph unicode="k" horiz-adv-x="1173" d="M205 0v1520h160v-1002l555 559h188l-403 -415l446 -662h-190l-369 547l-227 -236v-311h-160z" />
<glyph unicode="l" horiz-adv-x="569" d="M205 0v1520h160v-1520h-160z" />
<glyph unicode="m" horiz-adv-x="2138" d="M195 0v1077h157v-243q105 246 412 249q152 0 252.5 -73t134.5 -207q50 139 159 208.5t267 71.5q189 0 295 -111t106 -308v-664h-159v623q0 146 -79.5 227.5t-219.5 81.5q-165 -4 -259 -114.5t-94 -287.5v-530h-161v623q0 146 -79 227.5t-220 81.5q-164 -4 -259.5 -114.5 t-95.5 -287.5v-530h-157z" />
<glyph unicode="n" horiz-adv-x="1343" d="M195 0v1077h159v-237q111 240 418 243q193 0 301.5 -111t108.5 -308v-664h-160v623q0 144 -81 225.5t-224 81.5q-157 -1 -253 -97t-110 -255v-578h-159z" />
<glyph unicode="o" horiz-adv-x="1265" d="M86 541q0 239 153 390.5t394 151.5q240 0 393.5 -151.5t153.5 -390.5q0 -241 -153.5 -394t-393.5 -153q-241 0 -394 153t-153 394zM246 539q0 -181 108 -293.5t279 -112.5q170 0 278.5 113t108.5 293q0 178 -109 290.5t-278 112.5q-171 0 -279 -112.5t-108 -290.5z" />
<glyph unicode="p" horiz-adv-x="1384" d="M205 -397v1474h160v-231q60 113 167.5 175t247.5 62q229 0 373.5 -152.5t144.5 -393.5q0 -240 -143 -391.5t-371 -151.5q-143 0 -250.5 61.5t-168.5 175.5v-628h-160zM365 541q0 -179 108.5 -292.5t278.5 -113.5q169 0 277 114.5t108 291.5q0 175 -108.5 290t-276.5 115 q-170 0 -278.5 -114t-108.5 -291z" />
<glyph unicode="q" horiz-adv-x="1390" d="M86 541q0 241 144.5 392.5t373.5 151.5q144 0 253 -62.5t169 -178.5v233h160v-1474h-160v628q-60 -115 -168 -177t-252 -62q-230 0 -375 153.5t-145 395.5zM246 537q0 -179 109.5 -293.5t281.5 -114.5q170 0 279.5 114.5t109.5 293.5t-109.5 294t-279.5 115 q-171 0 -281 -115t-110 -294z" />
<glyph unicode="r" horiz-adv-x="761" d="M195 0v1077h159v-239q54 119 152.5 181.5t234.5 63.5v-155h-10q-161 0 -261 -94q-102 -96 -116 -261v-573h-159z" />
<glyph unicode="s" horiz-adv-x="927" d="M51 145l62 117q68 -64 165 -100.5t193 -36.5q101 0 165 40q66 41 66 122q0 40 -19 70q-20 32 -54 52.5t-79 37t-94.5 31.5t-99.5 31.5t-95 40.5t-80 55t-55 79t-20 109q0 74 30.5 131.5t83.5 92t119 51.5t142 17q195 0 344 -98l-61 -123q-136 86 -293 86 q-96 0 -154.5 -36t-58.5 -109q0 -43 26 -76t68 -51.5t96.5 -37.5t110.5 -34t110.5 -41t96.5 -58t68 -85.5t26 -122.5q0 -77 -32.5 -136.5t-88 -95.5t-125 -54.5t-149.5 -18.5q-118 0 -228.5 39.5t-185.5 111.5z" />
<glyph unicode="t" horiz-adv-x="798" d="M78 920v124h155v283h158v-283h342v-124h-342v-594q0 -185 144 -185q83 3 172 56l45 -123q-119 -80 -244 -80h-6q-121 0 -194 75q-75 77 -75 230v621h-155z" />
<glyph unicode="u" horiz-adv-x="1325" d="M158 414v663h159v-622q0 -144 79.5 -226t219.5 -82q165 3 260 113.5t95 288.5v528h159v-1077h-159v244q-106 -247 -410 -250q-189 0 -296 112.5t-107 307.5z" />
<glyph unicode="v" horiz-adv-x="1019" d="M8 1077h170l344 -915l342 915h162l-424 -1077h-166z" />
<glyph unicode="w" horiz-adv-x="1769" d="M8 1077h168l320 -915l313 915h168l317 -915l316 915h166l-400 -1077h-166l-317 883l-315 -883h-166z" />
<glyph unicode="x" horiz-adv-x="1083" d="M43 0l393 555l-366 522h184l287 -411l290 411h177l-361 -522l387 -555h-186l-307 442l-318 -442h-180z" />
<glyph unicode="y" horiz-adv-x="1028" d="M-12 -326l67 127q71 -51 152 -51q130 0 196 156l46 102l-447 1069h168l358 -897l342 897h164l-495 -1231q-51 -123 -133.5 -186t-190.5 -63q-131 0 -227 77z" />
<glyph unicode="z" horiz-adv-x="1079" d="M106 0v119l676 823l-657 2v133h850v-119l-676 -823l692 -2v-135z" />
<glyph unicode="{" horiz-adv-x="638" d="M88 563v135h53q51 0 75 30.5t24 94.5v457q0 129 68.5 185.5t223.5 56.5h58v-133q-109 0 -157 -37t-48 -117v-404q0 -88 -27.5 -134t-91.5 -66q64 -19 91.5 -65.5t27.5 -135.5v-401q0 -82 47.5 -118t157.5 -36v-133h-58q-155 0 -223.5 56.5t-68.5 185.5v456q0 64 -24 93.5 t-75 29.5h-53z" />
<glyph unicode="|" horiz-adv-x="512" d="M193 -248v1917h126v-1917h-126z" />
<glyph unicode="}" horiz-adv-x="729" d="M184 -125q110 0 157.5 36t47.5 118v401q0 89 27.5 135.5t91.5 65.5q-64 20 -91.5 66t-27.5 134v404q0 80 -48 117t-157 37v133h58q155 0 224 -56.5t69 -185.5v-457q0 -65 23.5 -95t74.5 -30h53v-135h-53q-51 0 -74.5 -29.5t-23.5 -93.5v-456q0 -129 -69 -185.5 t-224 -56.5h-58v133z" />
<glyph unicode="~" horiz-adv-x="1005" d="M150 541q0 118 45 179.5t131 61.5q54 0 116.5 -32t118.5 -63.5t94 -31.5q88 0 88 111h115q0 -119 -45 -180.5t-131 -61.5q-46 0 -95.5 20t-85 43.5t-76.5 43.5t-73 20q-88 0 -88 -110h-114z" />
<glyph unicode="&#xa1;" horiz-adv-x="415" d="M127 987q0 44 28.5 74.5t69.5 30.5q43 0 72 -30.5t29 -74.5t-29 -74t-72 -30q-41 0 -69.5 30t-28.5 74zM150 12l22 635h107l24 -635v-346h-153v346z" />
<glyph unicode="&#xa2;" horiz-adv-x="1228" d="M86 539q0 223 131.5 372.5t343.5 169.5v297h125v-297q217 -21 350 -157l-88 -111q-130 127 -321 127q-168 0 -275.5 -111.5t-107.5 -289.5q0 -179 107.5 -291.5t275.5 -112.5q217 0 334 139l92 -94q-132 -160 -367 -184v-283h-125v283q-212 20 -343.5 169t-131.5 374z " />
<glyph unicode="&#xa3;" horiz-adv-x="1107" d="M88 0v137h178v498h-178v123h178v246q0 209 105 322.5t299 113.5q112 0 212.5 -50t174.5 -141l-70 -127q-133 168 -301 168q-125 0 -190.5 -74t-65.5 -215v-243h373v-123h-373v-498h602v-137h-944z" />
<glyph unicode="&#xa4;" horiz-adv-x="1468" d="M86 98l213 215q-123 145 -123 338q0 192 121 338l-211 213l92 98l215 -215q152 113 340 113q190 0 342 -113l215 215l92 -98l-208 -211q122 -144 122 -340q0 -189 -125 -340l211 -213l-92 -98l-219 219q-148 -110 -338 -110q-188 0 -336 110l-219 -219zM305 651 q0 -166 125.5 -284.5t302.5 -118.5q180 0 307 118.5t127 284.5q0 169 -127 289.5t-307 120.5q-177 0 -302.5 -120.5t-125.5 -289.5z" />
<glyph unicode="&#xa5;" horiz-adv-x="1277" d="M8 1434h168l467 -754l457 754h170l-473 -813h338v-115h-406l-4 -8v-158h410v-117h-410v-223h-164v223h-401v117h401v158l-6 8h-395v115h327z" />
<glyph unicode="&#xa6;" horiz-adv-x="512" d="M193 -248v715h126v-715h-126zM193 956v713h126v-713h-126z" />
<glyph unicode="&#xa7;" horiz-adv-x="968" d="M51 -16l53 102q165 -137 365 -137q110 0 184 47t74 121q0 53 -34.5 92t-90 62.5t-122 43.5t-133.5 44.5t-122.5 57t-90 88t-34.5 130.5q0 100 71.5 167t197.5 89q-131 47 -186.5 105.5t-55.5 146.5q0 126 104 202t273 76q191 0 348 -98l-55 -104q-139 86 -291 86 q-108 0 -173 -42t-65 -114q0 -53 35 -91.5t90.5 -61.5t123 -43t134.5 -44t122.5 -56t90.5 -88t35 -132q0 -97 -69.5 -171t-163.5 -95q107 -42 155.5 -100t48.5 -146q0 -129 -110 -210t-285 -81q-121 0 -231 40.5t-193 113.5zM240 649q0 -83 85 -140.5t203 -57.5 q102 0 165 47.5t63 122.5q0 82 -75.5 132t-199.5 50q-111 0 -176 -42t-65 -112z" />
<glyph unicode="&#xa8;" horiz-adv-x="690" d="M78 1386q0 44 27.5 73.5t68.5 29.5t69.5 -29.5t28.5 -73.5q0 -41 -28.5 -70.5t-69.5 -29.5t-68.5 29t-27.5 71zM418 1386q0 44 28.5 73.5t69.5 29.5q40 0 68 -29.5t28 -73.5q0 -41 -28 -70.5t-68 -29.5q-41 0 -69.5 29.5t-28.5 70.5z" />
<glyph unicode="&#xa9;" horiz-adv-x="1550" d="M82 713q0 140 54 268.5t146 223t221 150.5t273 56q143 0 271.5 -55t220.5 -148.5t146 -221.5t54 -269q0 -140 -54.5 -268.5t-146.5 -223t-221.5 -151t-273.5 -56.5q-143 0 -271.5 55.5t-220 149.5t-145 222t-53.5 268zM170 713q0 -164 78.5 -302t217 -219t306.5 -81 q169 0 309.5 82t220.5 221t80 303t-79.5 302t-219 219t-307.5 81q-169 0 -308.5 -82t-218.5 -221t-79 -303zM412 715q0 151 108.5 254.5t265.5 103.5q74 0 144.5 -27.5t122.5 -76.5l-56 -66q-91 88 -211 88q-118 0 -201 -80t-83 -194q0 -117 82.5 -198t201.5 -81 q121 0 211 84l56 -59q-55 -52 -126 -81.5t-145 -29.5q-155 0 -262.5 105.5t-107.5 257.5z" />
<glyph unicode="&#xaa;" horiz-adv-x="778" d="M82 1122q0 84 65.5 130t184.5 46h213v45q-2 67 -45.5 103.5t-126.5 36.5q-104 0 -221 -68l-33 82q144 80 278 80q124 0 193 -59t69 -162l3 -418h-117v115q-79 -119 -246 -119q-99 0 -158 52t-59 136zM193 1133q0 -53 38.5 -85t104.5 -32q151 0 209 125v94h-191 q-77 0 -119 -26.5t-42 -75.5z" />
<glyph unicode="&#xab;" horiz-adv-x="874" d="M76 522l231 342h139l-219 -342l219 -340h-139zM391 522l232 342h139l-219 -342l219 -340h-139z" />
<glyph unicode="&#xac;" horiz-adv-x="1128" d="M76 676v117h882v-486h-120v369h-762z" />
<glyph unicode="&#xad;" horiz-adv-x="745" d="M131 561v117h481v-117h-481z" />
<glyph unicode="&#xae;" horiz-adv-x="1550" d="M82 713q0 140 54 268.5t146 223t221 150.5t273 56q143 0 271.5 -55t220.5 -148.5t146 -221.5t54 -269q0 -140 -54.5 -268.5t-146.5 -223t-221.5 -151t-273.5 -56.5q-143 0 -271.5 55.5t-220 149.5t-145 222t-53.5 268zM170 713q0 -164 78.5 -302t217 -219t306.5 -81 q169 0 309.5 82t220.5 221t80 303t-79.5 302t-219 219t-307.5 81q-169 0 -308.5 -82t-218.5 -221t-79 -303zM514 371v723h274q138 0 212.5 -63t74.5 -179q0 -89 -42 -149t-120 -85l172 -247h-102l-152 231q-14 -2 -43 -2h-188v-229h-86zM600 676h188q96 0 149.5 45.5 t53.5 128.5q0 81 -53.5 123.5t-149.5 42.5h-188v-340z" />
<glyph unicode="&#xaf;" horiz-adv-x="716" d="M113 1325v121h493v-121h-493z" />
<glyph unicode="&#xb0;" horiz-adv-x="671" d="M162 1417q0 94 69 163t164 69q97 0 167.5 -69t70.5 -163t-70.5 -161.5t-167.5 -67.5q-95 0 -164 67.5t-69 161.5zM240 1417q0 -61 46 -105t109 -44q66 0 113 44t47 105q0 60 -47 105t-113 45q-63 0 -109 -45t-46 -105z" />
<glyph unicode="&#xb1;" horiz-adv-x="1005" d="M76 68v116h854v-116h-854zM76 725v115h373v366h110v-366h371v-115h-371v-365h-110v365h-373z" />
<glyph unicode="&#xb2;" horiz-adv-x="778" d="M70 1464q143 121 307 121q122 0 196 -57.5t74 -153.5q0 -119 -158 -274l-256 -262h459v-101h-610v88l326 338q112 115 112 197q0 57 -42.5 90t-117.5 33q-58 0 -121.5 -28.5t-117.5 -78.5z" />
<glyph unicode="&#xb3;" horiz-adv-x="712" d="M33 815l51 96q94 -88 223 -88q94 0 147.5 46t53.5 122q0 73 -53.5 112.5t-149.5 39.5h-112v69l253 269h-376v94h516v-76l-260 -276l47 -2q115 -8 184.5 -68.5t69.5 -161.5q0 -118 -84.5 -191t-227.5 -73q-77 0 -152 24t-130 64z" />
<glyph unicode="&#xb4;" horiz-adv-x="716" d="M154 1260l245 276l162 -74l-254 -202h-153z" />
<glyph unicode="&#xb5;" horiz-adv-x="1370" d="M203 414v663h162v-665q12 -125 90 -195t207 -70q165 3 259.5 113.5t94.5 288.5v528h160v-1077h-160v244q-106 -247 -410 -250q-146 0 -241 65v-456h-160v759q-2 16 -2 52z" />
<glyph unicode="&#xb6;" horiz-adv-x="1212" d="M4 1141q0 75 25 141t75.5 120.5t137 86t200.5 31.5h553v-1745h-125v1638h-309v-1638h-125v1003q-25 -2 -69 -2q-83 0 -148.5 24.5t-104.5 62.5t-65 88t-35.5 96.5t-9.5 93.5z" />
<glyph unicode="&#xb7;" horiz-adv-x="401" d="M104 575q0 43 28 72t69 29q40 0 68 -29t28 -72t-28 -72.5t-68 -29.5q-41 0 -69 29.5t-28 72.5z" />
<glyph unicode="&#xb8;" horiz-adv-x="716" d="M176 -389l35 84q54 -41 121 -41q49 0 79.5 29t28.5 69q0 37 -27 62.5t-75 25.5q-14 0 -68 -6l78 182h101l-54 -118q65 -8 105.5 -49t40.5 -105q1 -82 -55 -133t-144 -51q-99 0 -166 51z" />
<glyph unicode="&#xb9;" horiz-adv-x="520" d="M43 1477v102h295v-842h-121v740h-174z" />
<glyph unicode="&#xba;" horiz-adv-x="825" d="M74 1255q0 143 94 232.5t244 89.5t245 -90t95 -232t-95 -231.5t-245 -89.5q-151 0 -244.5 89t-93.5 232zM190 1255q0 -99 62.5 -162t159.5 -63t158 62.5t61 162.5q0 98 -61 161t-158 63t-159.5 -63t-62.5 -161z" />
<glyph unicode="&#xbb;" horiz-adv-x="888" d="M156 184l219 342l-219 340h139l231 -340l-231 -342h-139zM471 184l219 342l-219 340h139l232 -340l-232 -342h-139z" />
<glyph unicode="&#xbc;" horiz-adv-x="1589" d="M43 1331v103h295v-842h-121v739h-174zM80 0l1073 1434h158l-1071 -1434h-160zM870 215v90l306 537h118l-301 -535h295v228h115v-228h129v-92h-129v-215h-115v215h-418z" />
<glyph unicode="&#xbd;" horiz-adv-x="1638" d="M43 1331v103h295v-842h-121v739h-174zM80 0l1073 1434h158l-1071 -1434h-160zM930 727q143 121 307 121q122 0 196 -57.5t74 -153.5q0 -121 -157 -275l-256 -262h458v-100h-610v88l326 338q112 115 112 197q0 57 -42 89.5t-117 32.5q-58 0 -122 -28t-118 -78z" />
<glyph unicode="&#xbe;" horiz-adv-x="1718" d="M33 672l51 96q94 -88 223 -88q94 0 147.5 46t53.5 122q0 73 -53.5 112t-149.5 39h-112v70l253 268h-376v95h516v-76l-260 -277l47 -2q115 -8 184.5 -68t69.5 -161q0 -118 -84.5 -191t-227.5 -73q-77 0 -152 24t-130 64zM209 0l1073 1434h158l-1071 -1434h-160zM999 215 v90l306 537h118l-301 -535h295v228h115v-228h129v-92h-129v-215h-115v215h-418z" />
<glyph unicode="&#xbf;" horiz-adv-x="868" d="M70 -6q0 68 18 124t47 95.5t63.5 74.5t69.5 69t64 70t47 87t18 111h127q0 -69 -17 -125.5t-43.5 -95.5t-59 -73t-65.5 -65.5t-59.5 -65.5t-43.5 -81.5t-17 -104.5q0 -103 69 -157t183 -54q116 0 183 58t73 170l129 -2q-7 -173 -113.5 -269t-285.5 -96q-175 0 -281 85.5 t-106 244.5zM367 987q0 44 28.5 74.5t69.5 30.5q43 0 71.5 -30.5t28.5 -74.5t-28.5 -74t-71.5 -30q-41 0 -69.5 30t-28.5 74z" />
<glyph unicode="&#xc0;" horiz-adv-x="1470" d="M8 0l643 1434h170l641 -1434h-178l-162 367h-780l-160 -367h-174zM410 518h647l-326 737zM428 1819l164 73l246 -276h-154z" />
<glyph unicode="&#xc1;" horiz-adv-x="1470" d="M8 0l643 1434h170l641 -1434h-178l-162 367h-780l-160 -367h-174zM410 518h647l-326 737zM627 1616l245 276l162 -73l-254 -203h-153z" />
<glyph unicode="&#xc2;" horiz-adv-x="1470" d="M8 0l643 1434h170l641 -1434h-178l-162 367h-780l-160 -367h-174zM410 518h647l-326 737zM449 1618l208 264h156l209 -264h-139l-148 186l-147 -186h-139z" />
<glyph unicode="&#xc3;" horiz-adv-x="1470" d="M8 0l643 1434h170l641 -1434h-178l-162 367h-780l-160 -367h-174zM410 518h647l-326 737zM430 1651q0 112 43.5 170.5t126.5 58.5q38 0 75 -19.5t61.5 -43t55 -43t56.5 -19.5q43 0 65.5 28t22.5 81h106q0 -113 -43.5 -171.5t-126.5 -58.5q-40 0 -77 19.5t-60.5 43t-53 43 t-56.5 19.5q-88 0 -88 -108h-107z" />
<glyph unicode="&#xc4;" horiz-adv-x="1470" d="M8 0l643 1434h170l641 -1434h-178l-162 367h-780l-160 -367h-174zM410 518h647l-326 737zM469 1743q0 44 27.5 73t68.5 29q42 0 70.5 -29t28.5 -73q0 -41 -29 -71t-70 -30t-68.5 29.5t-27.5 71.5zM809 1743q0 44 28 73t70 29q40 0 68.5 -29t28.5 -73q0 -41 -28.5 -71 t-68.5 -30q-41 0 -69.5 29.5t-28.5 71.5z" />
<glyph unicode="&#xc5;" horiz-adv-x="1470" d="M8 0l621 1384q-60 30 -96.5 86.5t-36.5 124.5q0 97 71 168.5t170 71.5t171.5 -71.5t72.5 -168.5q0 -68 -37.5 -125.5t-99.5 -87.5l618 -1382h-178l-162 367h-780l-160 -367h-174zM410 518h647l-326 737zM578 1595q0 -63 47 -107t112 -44q66 0 114 44t48 107t-48 108.5 t-114 45.5q-65 0 -112 -45.5t-47 -108.5z" />
<glyph unicode="&#xc6;" horiz-adv-x="2101" d="M8 0l846 1434h1104v-152h-809v-481h725v-150h-725v-499h836v-152h-1000v393h-575l-228 -393h-174zM487 526h498v768h-51z" />
<glyph unicode="&#xc7;" horiz-adv-x="1433" d="M82 719q0 197 99.5 362.5t271 261t376.5 95.5q146 0 283.5 -55.5t241.5 -153.5l-99 -119q-84 84 -195 131t-229 47q-119 0 -227 -44.5t-186 -120.5t-124 -181.5t-46 -222.5q0 -155 77.5 -286.5t212 -208.5t293.5 -77q117 0 227.5 45.5t196.5 126.5l101 -108 q-99 -92 -224 -149t-258 -66l-43 -98q65 -8 105.5 -49t40.5 -105q1 -82 -55 -133t-144 -51q-99 0 -166 51l35 84q54 -41 121 -41q49 0 80 29t29 69q0 37 -27.5 62.5t-75.5 25.5q-13 0 -67 -6l69 162q-193 11 -352 109.5t-250.5 260.5t-91.5 353z" />
<glyph unicode="&#xc8;" horiz-adv-x="1333" d="M217 0v1434h973v-152h-809v-481h723v-150h-723v-499h836v-152h-1000zM412 1819l163 73l246 -276h-153z" />
<glyph unicode="&#xc9;" horiz-adv-x="1333" d="M217 0v1434h973v-152h-809v-481h723v-150h-723v-499h836v-152h-1000zM610 1616l246 276l162 -73l-254 -203h-154z" />
<glyph unicode="&#xca;" horiz-adv-x="1333" d="M217 0v1434h973v-152h-809v-481h723v-150h-723v-499h836v-152h-1000zM432 1618l209 264h156l209 -264h-140l-147 186l-148 -186h-139z" />
<glyph unicode="&#xcb;" horiz-adv-x="1333" d="M217 0v1434h973v-152h-809v-481h723v-150h-723v-499h836v-152h-1000zM453 1743q0 44 27.5 73t68.5 29q42 0 70 -29t28 -73q0 -42 -28.5 -71.5t-69.5 -29.5t-68.5 29.5t-27.5 71.5zM793 1743q0 44 28 73t70 29q40 0 68 -29t28 -73q0 -41 -28 -71t-68 -30q-41 0 -69.5 29.5 t-28.5 71.5z" />
<glyph unicode="&#xcc;" horiz-adv-x="598" d="M-8 1819l164 73l245 -276h-153zM217 0v1434h164v-1434h-164z" />
<glyph unicode="&#xcd;" horiz-adv-x="598" d="M190 1616l246 276l162 -73l-254 -203h-154zM217 0v1434h164v-1434h-164z" />
<glyph unicode="&#xce;" horiz-adv-x="598" d="M12 1618l209 264h156l209 -264h-140l-147 186l-147 -186h-140zM217 0v1434h164v-1434h-164z" />
<glyph unicode="&#xcf;" horiz-adv-x="598" d="M33 1743q0 44 27.5 73t68.5 29q42 0 70 -29t28 -73q0 -42 -28.5 -71.5t-69.5 -29.5t-68.5 29.5t-27.5 71.5zM217 0v1434h164v-1434h-164zM373 1743q0 44 28 73t70 29q40 0 68 -29t28 -73q0 -41 -28 -71t-68 -30q-41 0 -69.5 29.5t-28.5 71.5z" />
<glyph unicode="&#xd0;" horiz-adv-x="1640" d="M0 668v104h242v662h579q154 0 291 -55t235 -150t155 -228t57 -284q0 -201 -97.5 -365.5t-268 -258t-378.5 -93.5h-573v668h-242zM406 152h417q158 0 288.5 73t206 202.5t75.5 287.5q0 159 -76.5 289.5t-208.5 204t-291 73.5h-411v-510h456v-104h-456v-516z" />
<glyph unicode="&#xd1;" horiz-adv-x="1628" d="M217 0v1434h170l860 -1166v1166h162v-1434h-168l-860 1163v-1163h-164zM535 1651q0 112 43.5 170.5t126.5 58.5q38 0 75 -19.5t61 -43t54.5 -43t56.5 -19.5q43 0 65.5 28t22.5 81h107q0 -113 -43.5 -171.5t-126.5 -58.5q-40 0 -77.5 19.5t-60.5 43t-53 43t-57 19.5 q-88 0 -88 -108h-106z" />
<glyph unicode="&#xd2;" horiz-adv-x="1665" d="M82 717q0 149 59 282.5t159 229.5t239.5 152.5t294.5 56.5q206 0 378 -95.5t271.5 -261.5t99.5 -364t-99.5 -364.5t-271.5 -262.5t-378 -96q-155 0 -294.5 56.5t-239.5 153t-159 230.5t-59 283zM248 717q0 -117 47 -223.5t126 -183t187 -122t226 -45.5q157 0 291 77 t212 209t78 288q0 117 -46 222.5t-124.5 181.5t-185.5 120.5t-225 44.5q-157 0 -292 -75.5t-214.5 -207t-79.5 -286.5zM520 1819l164 73l246 -276h-154z" />
<glyph unicode="&#xd3;" horiz-adv-x="1665" d="M82 717q0 149 59 282.5t159 229.5t239.5 152.5t294.5 56.5q206 0 378 -95.5t271.5 -261.5t99.5 -364t-99.5 -364.5t-271.5 -262.5t-378 -96q-155 0 -294.5 56.5t-239.5 153t-159 230.5t-59 283zM248 717q0 -117 47 -223.5t126 -183t187 -122t226 -45.5q157 0 291 77 t212 209t78 288q0 117 -46 222.5t-124.5 181.5t-185.5 120.5t-225 44.5q-157 0 -292 -75.5t-214.5 -207t-79.5 -286.5zM719 1616l246 276l161 -73l-254 -203h-153z" />
<glyph unicode="&#xd4;" horiz-adv-x="1665" d="M82 717q0 149 59 282.5t159 229.5t239.5 152.5t294.5 56.5q206 0 378 -95.5t271.5 -261.5t99.5 -364t-99.5 -364.5t-271.5 -262.5t-378 -96q-155 0 -294.5 56.5t-239.5 153t-159 230.5t-59 283zM248 717q0 -117 47 -223.5t126 -183t187 -122t226 -45.5q157 0 291 77 t212 209t78 288q0 117 -46 222.5t-124.5 181.5t-185.5 120.5t-225 44.5q-157 0 -292 -75.5t-214.5 -207t-79.5 -286.5zM541 1618l209 264h155l209 -264h-139l-148 186l-147 -186h-139z" />
<glyph unicode="&#xd5;" horiz-adv-x="1665" d="M82 717q0 149 59 282.5t159 229.5t239.5 152.5t294.5 56.5q206 0 378 -95.5t271.5 -261.5t99.5 -364t-99.5 -364.5t-271.5 -262.5t-378 -96q-155 0 -294.5 56.5t-239.5 153t-159 230.5t-59 283zM248 717q0 -117 47 -223.5t126 -183t187 -122t226 -45.5q157 0 291 77 t212 209t78 288q0 117 -46 222.5t-124.5 181.5t-185.5 120.5t-225 44.5q-157 0 -292 -75.5t-214.5 -207t-79.5 -286.5zM522 1651q0 112 43.5 170.5t126.5 58.5q38 0 75 -19.5t61.5 -43t55 -43t56.5 -19.5q43 0 65.5 28t22.5 81h107q0 -113 -43.5 -171.5t-126.5 -58.5 q-40 0 -77.5 19.5t-60.5 43t-53 43t-57 19.5q-88 0 -88 -108h-107z" />
<glyph unicode="&#xd6;" horiz-adv-x="1665" d="M82 717q0 149 59 282.5t159 229.5t239.5 152.5t294.5 56.5q206 0 378 -95.5t271.5 -261.5t99.5 -364t-99.5 -364.5t-271.5 -262.5t-378 -96q-155 0 -294.5 56.5t-239.5 153t-159 230.5t-59 283zM248 717q0 -117 47 -223.5t126 -183t187 -122t226 -45.5q157 0 291 77 t212 209t78 288q0 117 -46 222.5t-124.5 181.5t-185.5 120.5t-225 44.5q-157 0 -292 -75.5t-214.5 -207t-79.5 -286.5zM561 1743q0 44 27.5 73t68.5 29q42 0 70.5 -29t28.5 -73q0 -41 -29 -71t-70 -30t-68.5 29.5t-27.5 71.5zM901 1743q0 44 28 73t70 29q40 0 68.5 -29 t28.5 -73q0 -41 -28.5 -71t-68.5 -30q-41 0 -69.5 29.5t-28.5 71.5z" />
<glyph unicode="&#xd7;" horiz-adv-x="1005" d="M164 399l260 263l-260 260l78 82l262 -263l262 263l78 -82l-260 -260l260 -263l-78 -82l-262 263l-262 -263z" />
<glyph unicode="&#xd8;" horiz-adv-x="1665" d="M82 717q0 149 59 282.5t159 229.5t239.5 152.5t294.5 56.5q201 0 378 -97l144 205h104l-174 -252q138 -101 217.5 -251t79.5 -326q0 -198 -99.5 -364.5t-271.5 -262.5t-378 -96q-205 0 -383 98l-144 -205h-102l174 252q-138 100 -217.5 251.5t-79.5 326.5zM248 717 q0 -134 59.5 -251.5t161.5 -197.5l653 942q-130 76 -288 76q-157 0 -292 -75.5t-214.5 -207t-79.5 -286.5zM539 221q140 -78 295 -78q157 0 291 77t212 209t78 288q0 134 -59 251t-162 195z" />
<glyph unicode="&#xd9;" horiz-adv-x="1572" d="M184 590v844h164v-844q0 -211 117.5 -329t322.5 -118t321 118t116 329v844h164v-844q0 -281 -159.5 -438.5t-441.5 -157.5q-283 0 -443.5 157.5t-160.5 438.5zM479 1819l164 73l246 -276h-154z" />
<glyph unicode="&#xda;" horiz-adv-x="1572" d="M184 590v844h164v-844q0 -211 117.5 -329t322.5 -118t321 118t116 329v844h164v-844q0 -281 -159.5 -438.5t-441.5 -157.5q-283 0 -443.5 157.5t-160.5 438.5zM678 1616l246 276l161 -73l-254 -203h-153z" />
<glyph unicode="&#xdb;" horiz-adv-x="1572" d="M184 590v844h164v-844q0 -211 117.5 -329t322.5 -118t321 118t116 329v844h164v-844q0 -281 -159.5 -438.5t-441.5 -157.5q-283 0 -443.5 157.5t-160.5 438.5zM500 1618l209 264h155l209 -264h-139l-148 186l-147 -186h-139z" />
<glyph unicode="&#xdc;" horiz-adv-x="1572" d="M184 590v844h164v-844q0 -211 117.5 -329t322.5 -118t321 118t116 329v844h164v-844q0 -281 -159.5 -438.5t-441.5 -157.5q-283 0 -443.5 157.5t-160.5 438.5zM520 1743q0 44 27.5 73t68.5 29q42 0 70.5 -29t28.5 -73q0 -41 -29 -71t-70 -30t-68.5 29.5t-27.5 71.5z M860 1743q0 44 28 73t70 29q40 0 68.5 -29t28.5 -73q0 -41 -28.5 -71t-68.5 -30q-41 0 -69.5 29.5t-28.5 71.5z" />
<glyph unicode="&#xdd;" horiz-adv-x="1280" d="M8 1434h170l465 -752l459 752h168l-545 -936v-498h-162v494zM530 1616l246 276l162 -73l-254 -203h-154z" />
<glyph unicode="&#xde;" horiz-adv-x="1376" d="M217 0v1434h164v-213h332q297 0 452.5 -120t155.5 -349q0 -237 -155.5 -361.5t-452.5 -124.5h-332v-266h-164zM381 406h326q446 0 446 342q0 333 -446 333h-326v-675z" />
<glyph unicode="&#xdf;" horiz-adv-x="1329" d="M184 0v1004q0 238 134 380t362 142q202 0 327.5 -105.5t125.5 -281.5q0 -129 -72.5 -227.5t-192.5 -133.5q157 -27 249.5 -119.5t92.5 -236.5q0 -189 -141.5 -305.5t-376.5 -116.5h-108v129h118q159 0 256 79.5t97 207.5q0 130 -105.5 205t-283.5 75h-21v127 q152 0 242 80t90 213q0 126 -82 201.5t-217 75.5q-153 0 -243.5 -102.5t-90.5 -276.5v-1014h-160z" />
<glyph unicode="&#xe0;" horiz-adv-x="1181" d="M102 319q0 142 107.5 225.5t296.5 84.5h354v67q0 120 -74 187t-215 67q-165 0 -342 -125l-67 113q114 75 212 110t228 35q198 0 306 -98.5t110 -271.5l2 -713h-156v168q-128 -174 -395 -174q-165 0 -266 92.5t-101 232.5zM252 326q0 -90 67.5 -144.5t180.5 -54.5 q138 0 234.5 64.5t127.5 179.5v131h-336q-274 0 -274 -176zM274 1462l164 74l246 -276h-154z" />
<glyph unicode="&#xe1;" horiz-adv-x="1181" d="M102 319q0 142 107.5 225.5t296.5 84.5h354v67q0 120 -74 187t-215 67q-165 0 -342 -125l-67 113q114 75 212 110t228 35q198 0 306 -98.5t110 -271.5l2 -713h-156v168q-128 -174 -395 -174q-165 0 -266 92.5t-101 232.5zM252 326q0 -90 67.5 -144.5t180.5 -54.5 q138 0 234.5 64.5t127.5 179.5v131h-336q-274 0 -274 -176zM473 1260l246 276l162 -74l-254 -202h-154z" />
<glyph unicode="&#xe2;" horiz-adv-x="1181" d="M102 319q0 142 107.5 225.5t296.5 84.5h354v67q0 120 -74 187t-215 67q-165 0 -342 -125l-67 113q114 75 212 110t228 35q198 0 306 -98.5t110 -271.5l2 -713h-156v168q-128 -174 -395 -174q-165 0 -266 92.5t-101 232.5zM252 326q0 -90 67.5 -144.5t180.5 -54.5 q138 0 234.5 64.5t127.5 179.5v131h-336q-274 0 -274 -176zM295 1262l209 264h155l209 -264h-139l-147 186l-148 -186h-139z" />
<glyph unicode="&#xe3;" horiz-adv-x="1181" d="M102 319q0 142 107.5 225.5t296.5 84.5h354v67q0 120 -74 187t-215 67q-165 0 -342 -125l-67 113q114 75 212 110t228 35q198 0 306 -98.5t110 -271.5l2 -713h-156v168q-128 -174 -395 -174q-165 0 -266 92.5t-101 232.5zM252 326q0 -90 67.5 -144.5t180.5 -54.5 q138 0 234.5 64.5t127.5 179.5v131h-336q-274 0 -274 -176zM276 1294q0 113 43.5 171.5t126.5 58.5q38 0 75 -19.5t61.5 -43t55 -43t56.5 -19.5q88 0 88 108h107q0 -112 -43.5 -170.5t-126.5 -58.5q-40 0 -77.5 19.5t-60.5 43t-53 43t-57 19.5q-43 0 -65.5 -28t-22.5 -81 h-107z" />
<glyph unicode="&#xe4;" horiz-adv-x="1181" d="M102 319q0 142 107.5 225.5t296.5 84.5h354v67q0 120 -74 187t-215 67q-165 0 -342 -125l-67 113q114 75 212 110t228 35q198 0 306 -98.5t110 -271.5l2 -713h-156v168q-128 -174 -395 -174q-165 0 -266 92.5t-101 232.5zM252 326q0 -90 67.5 -144.5t180.5 -54.5 q138 0 234.5 64.5t127.5 179.5v131h-336q-274 0 -274 -176zM315 1386q0 44 28 73.5t69 29.5t69.5 -29.5t28.5 -73.5q0 -41 -28.5 -70.5t-69.5 -29.5t-69 29t-28 71zM655 1386q0 44 28.5 73.5t70.5 29.5q40 0 68 -29.5t28 -73.5q0 -41 -28 -70.5t-68 -29.5q-41 0 -70 29.5 t-29 70.5z" />
<glyph unicode="&#xe5;" horiz-adv-x="1181" d="M102 319q0 142 107.5 225.5t296.5 84.5h354v67q0 120 -74 187t-215 67q-165 0 -342 -125l-67 113q114 75 212 110t228 35q198 0 306 -98.5t110 -271.5l2 -713h-156v168q-128 -174 -395 -174q-165 0 -266 92.5t-101 232.5zM252 326q0 -90 67.5 -144.5t180.5 -54.5 q138 0 234.5 64.5t127.5 179.5v131h-336q-274 0 -274 -176zM346 1389q0 94 70 163.5t166 69.5t166.5 -69.5t70.5 -163.5t-70 -163t-167 -69q-96 0 -166 69t-70 163zM424 1389q0 -61 46.5 -105.5t111.5 -44.5t112 44.5t47 105.5t-47 106t-112 45q-64 0 -111 -44.5t-47 -106.5 z" />
<glyph unicode="&#xe6;" horiz-adv-x="2007" d="M102 313q0 138 107 216t299 79h356v88q-2 123 -77 188.5t-216 65.5q-172 0 -364 -125l-45 117q228 141 440 141q146 0 245 -56.5t136 -160.5q65 103 175.5 160t246.5 57q238 0 382 -158.5t140 -416.5h-901v-39q0 -135 118 -237.5t275 -102.5q206 0 334 137l88 -94 q-80 -86 -191 -132t-241 -46q-162 0 -287.5 76t-185.5 209q-133 -285 -467 -285q-164 0 -265.5 88t-101.5 231zM252 326q0 -95 69 -154t181 -59q132 0 220.5 58.5t143.5 184.5v158h-329q-136 0 -210.5 -49t-74.5 -139zM1028 602h739q-9 162 -108 260.5t-252 98.5 q-156 0 -261 -99t-118 -260z" />
<glyph unicode="&#xe7;" horiz-adv-x="1148" d="M86 539q0 239 150.5 391.5t384.5 152.5q259 0 415 -159l-88 -111q-130 127 -321 127q-168 0 -275.5 -111.5t-107.5 -289.5q0 -179 107.5 -291.5t275.5 -112.5q217 0 334 139l92 -94q-138 -166 -381 -184l-43 -98q65 -8 105 -49t40 -105q1 -82 -55 -133t-144 -51 q-98 0 -165 51l34 84q54 -41 121 -41q49 0 80 29t29 69q0 37 -27.5 62.5t-75.5 25.5q-13 0 -67 -6l69 162q-217 15 -352 165t-135 378z" />
<glyph unicode="&#xe8;" horiz-adv-x="1204" d="M86 539q0 240 149.5 391t385.5 153q256 0 385.5 -162t117.5 -442h-880q20 -160 126.5 -256t264.5 -96q203 0 334 137l88 -92q-77 -86 -188.5 -132t-245.5 -46q-238 0 -387.5 152t-149.5 393zM244 606h737q-8 157 -105 250.5t-255 93.5q-155 0 -257.5 -93.5t-119.5 -250.5 zM301 1462l164 74l246 -276h-154z" />
<glyph unicode="&#xe9;" horiz-adv-x="1204" d="M86 539q0 240 149.5 391t385.5 153q256 0 385.5 -162t117.5 -442h-880q20 -160 126.5 -256t264.5 -96q203 0 334 137l88 -92q-77 -86 -188.5 -132t-245.5 -46q-238 0 -387.5 152t-149.5 393zM244 606h737q-8 157 -105 250.5t-255 93.5q-155 0 -257.5 -93.5t-119.5 -250.5 zM500 1260l245 276l162 -74l-254 -202h-153z" />
<glyph unicode="&#xea;" horiz-adv-x="1204" d="M86 539q0 240 149.5 391t385.5 153q256 0 385.5 -162t117.5 -442h-880q20 -160 126.5 -256t264.5 -96q203 0 334 137l88 -92q-77 -86 -188.5 -132t-245.5 -46q-238 0 -387.5 152t-149.5 393zM244 606h737q-8 157 -105 250.5t-255 93.5q-155 0 -257.5 -93.5t-119.5 -250.5 zM322 1262l208 264h156l209 -264h-139l-148 186l-147 -186h-139z" />
<glyph unicode="&#xeb;" horiz-adv-x="1204" d="M86 539q0 240 149.5 391t385.5 153q256 0 385.5 -162t117.5 -442h-880q20 -160 126.5 -256t264.5 -96q203 0 334 137l88 -92q-77 -86 -188.5 -132t-245.5 -46q-238 0 -387.5 152t-149.5 393zM244 606h737q-8 157 -105 250.5t-255 93.5q-155 0 -257.5 -93.5t-119.5 -250.5 zM342 1386q0 44 27.5 73.5t68.5 29.5q42 0 70.5 -29.5t28.5 -73.5q0 -41 -29 -70.5t-70 -29.5t-68.5 29t-27.5 71zM682 1386q0 44 28.5 73.5t69.5 29.5q40 0 68.5 -29.5t28.5 -73.5q0 -41 -28.5 -70.5t-68.5 -29.5q-41 0 -69.5 29.5t-28.5 70.5z" />
<glyph unicode="&#xec;" horiz-adv-x="546" d="M-35 1462l164 74l246 -276h-154zM195 0v1077h157v-1077h-157z" />
<glyph unicode="&#xed;" horiz-adv-x="546" d="M164 1260l246 276l161 -74l-254 -202h-153zM195 0v1077h157v-1077h-157z" />
<glyph unicode="&#xee;" horiz-adv-x="546" d="M-14 1262l209 264h155l209 -264h-139l-148 186l-147 -186h-139zM195 0v1077h157v-1077h-157z" />
<glyph unicode="&#xef;" horiz-adv-x="546" d="M6 1386q0 44 27.5 73.5t68.5 29.5q42 0 70.5 -29.5t28.5 -73.5q0 -41 -29 -70.5t-70 -29.5t-68.5 29t-27.5 71zM195 0v1077h157v-1077h-157zM346 1386q0 44 28.5 73.5t69.5 29.5q40 0 68.5 -29.5t28.5 -73.5q0 -41 -28.5 -70.5t-68.5 -29.5q-41 0 -69.5 29.5t-28.5 70.5z " />
<glyph unicode="&#xf0;" horiz-adv-x="1189" d="M94 459q0 201 126.5 322.5t338.5 121.5q126 0 231 -53.5t154 -144.5q-76 262 -328 501l-297 -94l-26 90l239 78q-133 104 -253 164l104 82q158 -78 301 -199l258 84l29 -92l-207 -66q163 -162 252.5 -353.5t89.5 -387.5q0 -236 -143.5 -377t-384.5 -141 q-220 0 -352 126.5t-132 338.5zM248 467q0 -151 92.5 -240.5t249.5 -89.5q158 0 253 86.5t95 231.5q0 149 -95 238t-253 89q-157 0 -249.5 -85t-92.5 -230z" />
<glyph unicode="&#xf1;" horiz-adv-x="1343" d="M195 0v1077h159v-237q111 240 418 243q193 0 301.5 -111t108.5 -308v-664h-160v623q0 144 -81 225.5t-224 81.5q-157 -1 -253 -97t-110 -255v-578h-159zM399 1294q0 113 43.5 171.5t126.5 58.5q38 0 75 -19.5t61.5 -43t55 -43t56.5 -19.5q88 0 88 108h107 q0 -112 -43.5 -170.5t-126.5 -58.5q-40 0 -77.5 19.5t-60.5 43t-53 43t-57 19.5q-43 0 -65.5 -28t-22.5 -81h-107z" />
<glyph unicode="&#xf2;" horiz-adv-x="1265" d="M86 541q0 239 153 390.5t394 151.5q240 0 393.5 -151.5t153.5 -390.5q0 -241 -153.5 -394t-393.5 -153q-241 0 -394 153t-153 394zM246 539q0 -181 108 -293.5t279 -112.5q170 0 278.5 113t108.5 293q0 178 -109 290.5t-278 112.5q-171 0 -279 -112.5t-108 -290.5z M326 1462l163 74l246 -276h-153z" />
<glyph unicode="&#xf3;" horiz-adv-x="1265" d="M86 541q0 239 153 390.5t394 151.5q240 0 393.5 -151.5t153.5 -390.5q0 -241 -153.5 -394t-393.5 -153q-241 0 -394 153t-153 394zM246 539q0 -181 108 -293.5t279 -112.5q170 0 278.5 113t108.5 293q0 178 -109 290.5t-278 112.5q-171 0 -279 -112.5t-108 -290.5z M524 1260l246 276l162 -74l-254 -202h-154z" />
<glyph unicode="&#xf4;" horiz-adv-x="1265" d="M86 541q0 239 153 390.5t394 151.5q240 0 393.5 -151.5t153.5 -390.5q0 -241 -153.5 -394t-393.5 -153q-241 0 -394 153t-153 394zM246 539q0 -181 108 -293.5t279 -112.5q170 0 278.5 113t108.5 293q0 178 -109 290.5t-278 112.5q-171 0 -279 -112.5t-108 -290.5z M346 1262l209 264h156l209 -264h-140l-147 186l-148 -186h-139z" />
<glyph unicode="&#xf5;" horiz-adv-x="1265" d="M86 541q0 239 153 390.5t394 151.5q240 0 393.5 -151.5t153.5 -390.5q0 -241 -153.5 -394t-393.5 -153q-241 0 -394 153t-153 394zM246 539q0 -181 108 -293.5t279 -112.5q170 0 278.5 113t108.5 293q0 178 -109 290.5t-278 112.5q-171 0 -279 -112.5t-108 -290.5z M328 1294q0 113 43.5 171.5t126.5 58.5q38 0 75 -19.5t61 -43t54.5 -43t56.5 -19.5q43 0 66 28t23 80h106q0 -112 -43.5 -170.5t-126.5 -58.5q-40 0 -77.5 19.5t-60.5 43t-53 43t-57 19.5q-43 0 -65.5 -28t-22.5 -81h-106z" />
<glyph unicode="&#xf6;" horiz-adv-x="1265" d="M86 541q0 239 153 390.5t394 151.5q240 0 393.5 -151.5t153.5 -390.5q0 -241 -153.5 -394t-393.5 -153q-241 0 -394 153t-153 394zM246 539q0 -181 108 -293.5t279 -112.5q170 0 278.5 113t108.5 293q0 178 -109 290.5t-278 112.5q-171 0 -279 -112.5t-108 -290.5z M367 1386q0 44 27.5 73.5t68.5 29.5t69.5 -29.5t28.5 -73.5q0 -41 -28.5 -70.5t-69.5 -29.5t-68.5 29t-27.5 71zM707 1386q0 44 28.5 73.5t69.5 29.5q40 0 68 -29.5t28 -73.5q0 -41 -28 -70.5t-68 -29.5q-41 0 -69.5 29.5t-28.5 70.5z" />
<glyph unicode="&#xf7;" horiz-adv-x="1005" d="M76 602v117h854v-117h-854zM401 309q0 44 28.5 73.5t70.5 29.5q43 0 70.5 -29.5t27.5 -73.5q0 -43 -28 -72.5t-70 -29.5q-41 0 -70 29.5t-29 72.5zM401 1032q0 44 28.5 73.5t70.5 29.5q43 0 70.5 -29.5t27.5 -73.5q0 -43 -28 -72.5t-70 -29.5q-41 0 -70 29.5t-29 72.5z " />
<glyph unicode="&#xf8;" horiz-adv-x="1265" d="M86 541q0 239 153 390.5t394 151.5q114 0 217 -39l121 240h82l-138 -270q124 -69 194.5 -192.5t70.5 -280.5q0 -241 -153.5 -394t-393.5 -153q-114 0 -217 39l-121 -240h-82l137 270q-124 68 -194 193t-70 285zM238 539q0 -117 46 -209.5t128 -145.5l376 742 q-73 28 -155 28q-174 0 -284.5 -115.5t-110.5 -299.5zM477 150q76 -29 156 -29q174 0 284.5 116.5t110.5 301.5q0 115 -46.5 206.5t-127.5 145.5z" />
<glyph unicode="&#xf9;" horiz-adv-x="1325" d="M158 414v663h159v-622q0 -144 79.5 -226t219.5 -82q165 3 260 113.5t95 288.5v528h159v-1077h-159v244q-106 -247 -410 -250q-189 0 -296 112.5t-107 307.5zM342 1462l164 74l246 -276h-154z" />
<glyph unicode="&#xfa;" horiz-adv-x="1325" d="M158 414v663h159v-622q0 -144 79.5 -226t219.5 -82q165 3 260 113.5t95 288.5v528h159v-1077h-159v244q-106 -247 -410 -250q-189 0 -296 112.5t-107 307.5zM541 1260l245 276l162 -74l-254 -202h-153z" />
<glyph unicode="&#xfb;" horiz-adv-x="1325" d="M158 414v663h159v-622q0 -144 79.5 -226t219.5 -82q165 3 260 113.5t95 288.5v528h159v-1077h-159v244q-106 -247 -410 -250q-189 0 -296 112.5t-107 307.5zM362 1262l209 264h156l209 -264h-139l-148 186l-147 -186h-140z" />
<glyph unicode="&#xfc;" horiz-adv-x="1325" d="M158 414v663h159v-622q0 -144 79.5 -226t219.5 -82q165 3 260 113.5t95 288.5v528h159v-1077h-159v244q-106 -247 -410 -250q-189 0 -296 112.5t-107 307.5zM383 1386q0 44 27.5 73.5t68.5 29.5q42 0 70.5 -29.5t28.5 -73.5q0 -41 -29 -70.5t-70 -29.5t-68.5 29t-27.5 71 zM723 1386q0 44 28.5 73.5t69.5 29.5q40 0 68.5 -29.5t28.5 -73.5q0 -41 -28.5 -70.5t-68.5 -29.5q-41 0 -69.5 29.5t-28.5 70.5z" />
<glyph unicode="&#xfd;" horiz-adv-x="1028" d="M-12 -326l67 127q71 -51 152 -51q130 0 196 156l46 102l-447 1069h168l358 -897l342 897h164l-495 -1231q-51 -123 -133.5 -186t-190.5 -63q-131 0 -227 77zM412 1260l245 276l162 -74l-254 -202h-153z" />
<glyph unicode="&#xfe;" horiz-adv-x="1384" d="M205 -397v1917h160v-672q59 111 167 173t248 62q229 0 373.5 -152.5t144.5 -393.5q0 -240 -143 -391.5t-371 -151.5q-143 0 -251.5 61.5t-167.5 173.5v-626h-160zM365 541q0 -179 108.5 -292.5t278.5 -113.5q169 0 277 114.5t108 291.5q0 175 -108.5 290t-276.5 115 q-170 0 -278.5 -114t-108.5 -291z" />
<glyph unicode="&#xff;" horiz-adv-x="1028" d="M-12 -326l67 127q71 -51 152 -51q130 0 196 156l46 102l-447 1069h168l358 -897l342 897h164l-495 -1231q-51 -123 -133.5 -186t-190.5 -63q-131 0 -227 77zM254 1386q0 44 27.5 73.5t68.5 29.5q42 0 70.5 -29.5t28.5 -73.5q0 -41 -29 -70.5t-70 -29.5t-68.5 29t-27.5 71 zM594 1386q0 44 28.5 73.5t69.5 29.5q40 0 68 -29.5t28 -73.5q0 -41 -28 -70.5t-68 -29.5q-41 0 -69.5 29.5t-28.5 70.5z" />
<glyph unicode="&#x152;" horiz-adv-x="2240" d="M82 717q0 196 99.5 361t271.5 260.5t378 95.5h1266v-152h-811v-481h725v-150h-725v-499h838v-152h-1293q-206 0 -378 95t-271.5 260t-99.5 362zM248 715q0 -156 78 -286t212.5 -204.5t295.5 -74.5l290 -3v1135h-290q-161 0 -295.5 -74.5t-212.5 -205t-78 -287.5z" />
<glyph unicode="&#x153;" horiz-adv-x="2158" d="M86 541q0 239 153.5 390.5t393.5 151.5q161 0 282 -75t183 -209q61 133 180 208.5t276 75.5q241 0 385.5 -159.5t139.5 -415.5h-905q12 -171 121 -276t274 -105q205 0 336 137l88 -92q-79 -86 -190.5 -132t-243.5 -46q-161 0 -281.5 75.5t-179.5 209.5 q-62 -134 -184 -209.5t-281 -75.5q-240 0 -393.5 152.5t-153.5 394.5zM246 539q0 -180 108.5 -293t278.5 -113t278.5 113t108.5 293q0 178 -109 290.5t-278 112.5t-278 -112.5t-109 -290.5zM1174 602h745q-9 160 -108 259.5t-257 99.5q-154 0 -258.5 -99t-121.5 -260z" />
<glyph unicode="&#x178;" horiz-adv-x="1280" d="M8 1434h170l465 -752l459 752h168l-545 -936v-498h-162v494zM373 1743q0 44 27.5 73t68.5 29q42 0 70 -29t28 -73q0 -42 -28.5 -71.5t-69.5 -29.5t-68.5 29.5t-27.5 71.5zM713 1743q0 44 28 73t70 29q40 0 68 -29t28 -73q0 -41 -28 -71t-68 -30q-41 0 -69.5 29.5 t-28.5 71.5z" />
<glyph unicode="&#x2c6;" horiz-adv-x="716" d="M72 1266l209 264h155l209 -264h-139l-148 186l-147 -186h-139z" />
<glyph unicode="&#x2dc;" horiz-adv-x="716" d="M53 1294q0 113 43.5 171.5t126.5 58.5q38 0 75 -19.5t61.5 -43t55 -43t56.5 -19.5q88 0 88 108h107q0 -112 -43.5 -170.5t-126.5 -58.5q-40 0 -77.5 19.5t-60.5 43t-53 43t-57 19.5q-43 0 -65.5 -28t-22.5 -81h-107z" />
<glyph unicode="&#x2000;" horiz-adv-x="946" />
<glyph unicode="&#x2001;" horiz-adv-x="1892" />
<glyph unicode="&#x2002;" horiz-adv-x="946" />
<glyph unicode="&#x2003;" horiz-adv-x="1892" />
<glyph unicode="&#x2004;" horiz-adv-x="630" />
<glyph unicode="&#x2005;" horiz-adv-x="473" />
<glyph unicode="&#x2006;" horiz-adv-x="315" />
<glyph unicode="&#x2007;" horiz-adv-x="315" />
<glyph unicode="&#x2008;" horiz-adv-x="236" />
<glyph unicode="&#x2009;" horiz-adv-x="378" />
<glyph unicode="&#x200a;" horiz-adv-x="105" />
<glyph unicode="&#x2010;" horiz-adv-x="745" d="M131 561v117h481v-117h-481z" />
<glyph unicode="&#x2011;" horiz-adv-x="745" d="M131 561v117h481v-117h-481z" />
<glyph unicode="&#x2012;" horiz-adv-x="745" d="M131 561v117h481v-117h-481z" />
<glyph unicode="&#x2013;" horiz-adv-x="825" d="M0 561v117h825v-117h-825z" />
<glyph unicode="&#x2014;" horiz-adv-x="1470" d="M0 561v117h1470v-117h-1470z" />
<glyph unicode="&#x2018;" horiz-adv-x="403" d="M86 1217q0 39 31 86l96 145h90l-67 -148q45 -23 45 -83q0 -44 -28 -73.5t-69 -29.5t-69.5 28.5t-28.5 74.5z" />
<glyph unicode="&#x2019;" horiz-adv-x="403" d="M86 1100l68 147q-45 23 -45 84q0 44 27.5 73.5t68.5 29.5t69.5 -28.5t28.5 -74.5q0 -39 -31 -86l-96 -145h-90z" />
<glyph unicode="&#x201a;" horiz-adv-x="403" d="M86 -145l68 147q-45 23 -45 84q0 44 27.5 73t68.5 29t69.5 -28t28.5 -74q0 -40 -31 -86l-96 -145h-90z" />
<glyph unicode="&#x201c;" horiz-adv-x="661" d="M86 1217q0 39 31 86l96 145h90l-67 -148q45 -23 45 -83q0 -44 -28 -73.5t-69 -29.5t-69.5 28.5t-28.5 74.5zM344 1217q0 39 31 86l96 145h90l-67 -148q45 -23 45 -83q0 -44 -28 -73.5t-69 -29.5t-69.5 28.5t-28.5 74.5z" />
<glyph unicode="&#x201d;" horiz-adv-x="661" d="M86 1100l68 147q-45 23 -45 84q0 44 27.5 73.5t68.5 29.5t69.5 -28.5t28.5 -74.5q0 -39 -31 -86l-96 -145h-90zM344 1100l68 147q-45 23 -45 84q0 44 27.5 73.5t68.5 29.5t69.5 -28.5t28.5 -74.5q0 -39 -31 -86l-96 -145h-90z" />
<glyph unicode="&#x201e;" horiz-adv-x="661" d="M86 -145l68 147q-45 23 -45 84q0 44 27.5 73t68.5 29t69.5 -28t28.5 -74q0 -40 -31 -86l-96 -145h-90zM344 -145l68 147q-45 23 -45 84q0 44 27.5 73t68.5 29t69.5 -28t28.5 -74q0 -40 -31 -86l-96 -145h-90z" />
<glyph unicode="&#x2022;" horiz-adv-x="507" d="M104 549q0 67 43.5 111.5t106.5 44.5t106 -44.5t43 -111.5t-43 -112.5t-106 -45.5t-106.5 45.5t-43.5 112.5z" />
<glyph unicode="&#x2026;" horiz-adv-x="1150" d="M104 86q0 43 28 71.5t69 28.5q40 0 68 -29t28 -71q0 -43 -28 -72.5t-68 -29.5q-41 0 -69 29.5t-28 72.5zM479 86q0 43 27.5 71.5t68.5 28.5q40 0 68.5 -29t28.5 -71q0 -43 -28.5 -72.5t-68.5 -29.5q-41 0 -68.5 29.5t-27.5 72.5zM856 86q0 43 27.5 71.5t68.5 28.5 q40 0 68.5 -29t28.5 -71q0 -43 -28.5 -72.5t-68.5 -29.5q-41 0 -68.5 29.5t-27.5 72.5z" />
<glyph unicode="&#x202f;" horiz-adv-x="378" />
<glyph unicode="&#x2039;" horiz-adv-x="559" d="M76 522l231 342h139l-219 -342l219 -340h-139z" />
<glyph unicode="&#x203a;" horiz-adv-x="573" d="M156 184l219 342l-219 340h139l231 -340l-231 -342h-139z" />
<glyph unicode="&#x205f;" horiz-adv-x="473" />
<glyph unicode="&#x20ac;" horiz-adv-x="1630" d="M88 473v105h207q-14 63 -14 141q0 59 10 127h-203v102h229q74 218 268.5 354t442.5 136q146 0 282.5 -55.5t239.5 -153.5l-96 -119q-86 84 -196.5 131t-229.5 47q-177 0 -321 -93.5t-213 -246.5h557v-102h-592q-15 -62 -15 -127q0 -70 19 -141h588v-105h-549 q72 -147 213.5 -236.5t312.5 -89.5q117 0 227.5 45.5t198.5 126.5l98 -108q-106 -102 -244.5 -159.5t-285.5 -57.5q-242 0 -432 132.5t-266 346.5h-236z" />
<glyph unicode="&#x2122;" horiz-adv-x="1792" d="M-6 1323v111h653v-111h-266v-750h-123v750h-264zM782 573v861h148l297 -605l295 605h149v-861h-112v689l-293 -598h-78l-293 598v-689h-113z" />
<glyph unicode="&#x25fc;" horiz-adv-x="1075" d="M0 0v1075h1075v-1075h-1075z" />
<glyph unicode="&#xfb03;" horiz-adv-x="1890" d="M88 920v124h139v121q0 167 101.5 265t244.5 96q130 0 232 -76l-66 -123q-77 55 -164 55q-81 2 -135.5 -51t-54.5 -145v-142h309v-124h-309v-920h-158v920h-139zM768 926v127h139v121q0 86 29 156t78 113.5t110.5 67t128.5 23.5q114 -3 195 -55l-4 -144q-97 54 -189 54 q-83 0 -136.5 -52t-53.5 -145v-139h309v-127h-309v-926h-158v926h-139zM1511 1386q0 47 30 78t75 31q44 0 74 -31t30 -78q0 -46 -30 -77t-74 -31t-74.5 31t-30.5 77zM1538 0v1077h158v-1077h-158z" />
<glyph unicode="&#xfb04;" horiz-adv-x="1929" d="M88 920v124h139v121q0 167 101.5 265t244.5 96q130 0 232 -76l-66 -123q-77 55 -164 55q-81 2 -135.5 -51t-54.5 -145v-142h309v-124h-309v-920h-158v920h-139zM768 922v122h139v150q0 151 98.5 249.5t247.5 96.5q115 -3 197 -51l-4 -146q-75 57 -164 60 q-92 2 -154.5 -64.5t-62.5 -167.5v-127h309v-122h-309v-922h-158v922h-139zM1565 0v1520h159v-1520h-159z" />
<hkern u1="&#x27;" u2="&#x2e;" k="131" />
<hkern u1="D" u2="Y" k="4" />
<hkern u1="J" u2="J" k="14" />
<hkern u1="J" u2="&#x2e;" k="12" />
<hkern u1="K" u2="&#x152;" k="51" />
<hkern u1="K" u2="&#xd8;" k="51" />
<hkern u1="K" u2="&#xd6;" k="51" />
<hkern u1="K" u2="&#xd5;" k="51" />
<hkern u1="K" u2="&#xd4;" k="51" />
<hkern u1="K" u2="&#xd3;" k="51" />
<hkern u1="K" u2="&#xd2;" k="51" />
<hkern u1="K" u2="&#xc7;" k="51" />
<hkern u1="K" u2="Q" k="51" />
<hkern u1="K" u2="O" k="51" />
<hkern u1="K" u2="G" k="51" />
<hkern u1="K" u2="C" k="51" />
<hkern u1="O" u2="Y" k="4" />
<hkern u1="Q" u2="Y" k="4" />
<hkern u1="U" u2="J" k="14" />
<hkern u1="V" u2="O" k="10" />
<hkern u1="W" u2="O" k="10" />
<hkern u1="W" u2="&#x2e;" k="8" />
<hkern u1="W" u2="&#x26;" k="39" />
<hkern u1="Y" u2="&#x152;" k="82" />
<hkern u1="Y" u2="&#xd8;" k="82" />
<hkern u1="Y" u2="&#xd6;" k="82" />
<hkern u1="Y" u2="&#xd5;" k="82" />
<hkern u1="Y" u2="&#xd4;" k="82" />
<hkern u1="Y" u2="&#xd3;" k="82" />
<hkern u1="Y" u2="&#xd2;" k="82" />
<hkern u1="Y" u2="&#xc7;" k="82" />
<hkern u1="Y" u2="Q" k="82" />
<hkern u1="Y" u2="O" k="10" />
<hkern u1="Y" u2="J" k="76" />
<hkern u1="Y" u2="G" k="82" />
<hkern u1="Y" u2="C" k="82" />
<hkern u1="Y" u2="&#x2e;" k="16" />
<hkern u1="Y" u2="&#x26;" k="51" />
<hkern u1="a" u2="&#x7d;" k="90" />
<hkern u1="a" u2="\" k="14" />
<hkern u1="a" u2="O" k="10" />
<hkern u1="a" u2="J" k="12" />
<hkern u1="b" u2="J" k="113" />
<hkern u1="e" u2="&#x7d;" k="113" />
<hkern u1="e" u2="\" k="29" />
<hkern u1="e" u2="J" k="113" />
<hkern u1="h" u2="O" k="10" />
<hkern u1="h" u2="J" k="12" />
<hkern u1="m" u2="O" k="10" />
<hkern u1="m" u2="J" k="12" />
<hkern u1="n" u2="O" k="10" />
<hkern u1="n" u2="J" k="12" />
<hkern u1="o" u2="J" k="113" />
<hkern u1="p" u2="J" k="113" />
<hkern u1="y" u2="J" k="14" />
<hkern u1="y" u2="&#x2e;" k="27" />
<hkern u1="&#xd0;" u2="Y" k="4" />
<hkern u1="&#xd2;" u2="Y" k="4" />
<hkern u1="&#xd3;" u2="Y" k="4" />
<hkern u1="&#xd4;" u2="Y" k="4" />
<hkern u1="&#xd5;" u2="Y" k="4" />
<hkern u1="&#xd6;" u2="Y" k="4" />
<hkern u1="&#xd8;" u2="Y" k="4" />
<hkern u1="&#xd9;" u2="J" k="14" />
<hkern u1="&#xda;" u2="J" k="14" />
<hkern u1="&#xdb;" u2="J" k="14" />
<hkern u1="&#xdc;" u2="J" k="14" />
<hkern u1="&#xdd;" u2="O" k="10" />
<hkern u1="&#xde;" u2="Y" k="39" />
<hkern u1="&#xe0;" u2="O" k="10" />
<hkern u1="&#xe0;" u2="J" k="12" />
<hkern u1="&#xe1;" u2="O" k="10" />
<hkern u1="&#xe1;" u2="J" k="12" />
<hkern u1="&#xe2;" u2="O" k="10" />
<hkern u1="&#xe2;" u2="J" k="12" />
<hkern u1="&#xe3;" u2="O" k="10" />
<hkern u1="&#xe3;" u2="J" k="12" />
<hkern u1="&#xe4;" u2="O" k="10" />
<hkern u1="&#xe4;" u2="J" k="12" />
<hkern u1="&#xe5;" u2="O" k="10" />
<hkern u1="&#xe5;" u2="J" k="12" />
<hkern u1="&#xe8;" u2="J" k="113" />
<hkern u1="&#xe9;" u2="J" k="113" />
<hkern u1="&#xea;" u2="J" k="113" />
<hkern u1="&#xeb;" u2="J" k="113" />
<hkern u1="&#xf0;" u2="Y" k="4" />
<hkern u1="&#xf1;" u2="O" k="10" />
<hkern u1="&#xf1;" u2="J" k="12" />
<hkern u1="&#xf2;" u2="J" k="113" />
<hkern u1="&#xf3;" u2="J" k="113" />
<hkern u1="&#xf4;" u2="J" k="113" />
<hkern u1="&#xf5;" u2="J" k="113" />
<hkern u1="&#xf6;" u2="J" k="113" />
<hkern u1="&#xf8;" u2="J" k="113" />
<hkern u1="&#xfe;" u2="J" k="113" />
<hkern u1="&#x178;" u2="O" k="10" />
<hkern u1="&#x2018;" u2="&#x2e;" k="70" />
<hkern u1="&#x2019;" u2="&#x2e;" k="57" />
<hkern u1="&#x2019;" u2="&#x26;" k="43" />
<hkern g1="A,Agrave,Aacute,Acircumflex,Atilde,Adieresis,Aring" 	g2="C,G,O,Q,Ccedilla,Ograve,Oacute,Ocircumflex,Otilde,Odieresis,Oslash,OE" 	k="35" />
<hkern g1="A,Agrave,Aacute,Acircumflex,Atilde,Adieresis,Aring" 	g2="S" 	k="16" />
<hkern g1="A,Agrave,Aacute,Acircumflex,Atilde,Adieresis,Aring" 	g2="T" 	k="135" />
<hkern g1="A,Agrave,Aacute,Acircumflex,Atilde,Adieresis,Aring" 	g2="U,Ugrave,Uacute,Ucircumflex,Udieresis" 	k="41" />
<hkern g1="A,Agrave,Aacute,Acircumflex,Atilde,Adieresis,Aring" 	g2="V,W,Y,Yacute,Ydieresis" 	k="94" />
<hkern g1="A,Agrave,Aacute,Acircumflex,Atilde,Adieresis,Aring" 	g2="c,d,e,g,o,q,ccedilla,egrave,eacute,ecircumflex,edieresis,eth,ograve,oacute,ocircumflex,otilde,odieresis,oslash,oe" 	k="57" />
<hkern g1="A,Agrave,Aacute,Acircumflex,Atilde,Adieresis,Aring" 	g2="t,u,ugrave,uacute,ucircumflex,udieresis" 	k="57" />
<hkern g1="A,Agrave,Aacute,Acircumflex,Atilde,Adieresis,Aring" 	g2="v,w,y,yacute,ydieresis" 	k="39" />
<hkern g1="A,Agrave,Aacute,Acircumflex,Atilde,Adieresis,Aring" 	g2="backslash" 	k="84" />
<hkern g1="B,germandbls" 	g2="backslash" 	k="18" />
<hkern g1="B,germandbls" 	g2="J" 	k="6" />
<hkern g1="C,Ccedilla" 	g2="C,G,O,Q,Ccedilla,Ograve,Oacute,Ocircumflex,Otilde,Odieresis,Oslash,OE" 	k="35" />
<hkern g1="C,Ccedilla" 	g2="c,d,e,g,o,q,ccedilla,egrave,eacute,ecircumflex,edieresis,eth,ograve,oacute,ocircumflex,otilde,odieresis,oslash,oe" 	k="35" />
<hkern g1="C,Ccedilla" 	g2="A,Agrave,Aacute,Acircumflex,Atilde,Adieresis,Aring,AE" 	k="6" />
<hkern g1="F" 	g2="J" 	k="35" />
<hkern g1="F" 	g2="A,Agrave,Aacute,Acircumflex,Atilde,Adieresis,Aring,AE" 	k="51" />
<hkern g1="F" 	g2="period" 	k="41" />
<hkern g1="L" 	g2="backslash" 	k="115" />
<hkern g1="L" 	g2="A,Agrave,Aacute,Acircumflex,Atilde,Adieresis,Aring,AE" 	k="-16" />
<hkern g1="D,O,Q,Eth,Ograve,Oacute,Ocircumflex,Otilde,Odieresis,Oslash,eth" 	g2="C,G,O,Q,Ccedilla,Ograve,Oacute,Ocircumflex,Otilde,Odieresis,Oslash,OE" 	k="35" />
<hkern g1="D,O,Q,Eth,Ograve,Oacute,Ocircumflex,Otilde,Odieresis,Oslash,eth" 	g2="T" 	k="18" />
<hkern g1="D,O,Q,Eth,Ograve,Oacute,Ocircumflex,Otilde,Odieresis,Oslash,eth" 	g2="V,W,Y,Yacute,Ydieresis" 	k="18" />
<hkern g1="D,O,Q,Eth,Ograve,Oacute,Ocircumflex,Otilde,Odieresis,Oslash,eth" 	g2="v,w,y,yacute,ydieresis" 	k="16" />
<hkern g1="D,O,Q,Eth,Ograve,Oacute,Ocircumflex,Otilde,Odieresis,Oslash,eth" 	g2="J" 	k="70" />
<hkern g1="D,O,Q,Eth,Ograve,Oacute,Ocircumflex,Otilde,Odieresis,Oslash,eth" 	g2="A,Agrave,Aacute,Acircumflex,Atilde,Adieresis,Aring,AE" 	k="35" />
<hkern g1="D,O,Q,Eth,Ograve,Oacute,Ocircumflex,Otilde,Odieresis,Oslash,eth" 	g2="period" 	k="49" />
<hkern g1="D,O,Q,Eth,Ograve,Oacute,Ocircumflex,Otilde,Odieresis,Oslash,eth" 	g2="x" 	k="20" />
<hkern g1="P" 	g2="J" 	k="61" />
<hkern g1="P" 	g2="A,Agrave,Aacute,Acircumflex,Atilde,Adieresis,Aring,AE" 	k="80" />
<hkern g1="P" 	g2="period" 	k="39" />
<hkern g1="R" 	g2="V,W,Y,Yacute,Ydieresis" 	k="18" />
<hkern g1="R" 	g2="backslash" 	k="39" />
<hkern g1="R" 	g2="J" 	k="20" />
<hkern g1="S" 	g2="A,Agrave,Aacute,Acircumflex,Atilde,Adieresis,Aring,AE" 	k="16" />
<hkern g1="T" 	g2="C,G,O,Q,Ccedilla,Ograve,Oacute,Ocircumflex,Otilde,Odieresis,Oslash,OE" 	k="92" />
<hkern g1="T" 	g2="c,d,e,g,o,q,ccedilla,egrave,eacute,ecircumflex,edieresis,eth,ograve,oacute,ocircumflex,otilde,odieresis,oslash,oe" 	k="152" />
<hkern g1="T" 	g2="t,u,ugrave,uacute,ucircumflex,udieresis" 	k="102" />
<hkern g1="T" 	g2="v,w,y,yacute,ydieresis" 	k="102" />
<hkern g1="T" 	g2="J" 	k="29" />
<hkern g1="T" 	g2="A,Agrave,Aacute,Acircumflex,Atilde,Adieresis,Aring,AE" 	k="135" />
<hkern g1="T" 	g2="period" 	k="115" />
<hkern g1="T" 	g2="b,h,k,l,thorn" 	k="121" />
<hkern g1="T" 	g2="m,n,r,ntilde" 	k="102" />
<hkern g1="T" 	g2="s" 	k="43" />
<hkern g1="T" 	g2="z" 	k="88" />
<hkern g1="T" 	g2="ampersand" 	k="61" />
<hkern g1="Thorn" 	g2="V,W,Y,Yacute,Ydieresis" 	k="4" />
<hkern g1="Thorn" 	g2="J" 	k="16" />
<hkern g1="Thorn" 	g2="period" 	k="80" />
<hkern g1="J,U,Ugrave,Uacute,Ucircumflex,Udieresis" 	g2="J" 	k="39" />
<hkern g1="J,U,Ugrave,Uacute,Ucircumflex,Udieresis" 	g2="A,Agrave,Aacute,Acircumflex,Atilde,Adieresis,Aring,AE" 	k="41" />
<hkern g1="J,U,Ugrave,Uacute,Ucircumflex,Udieresis" 	g2="period" 	k="23" />
<hkern g1="J,U,Ugrave,Uacute,Ucircumflex,Udieresis" 	g2="x" 	k="41" />
<hkern g1="V,W,Y,Yacute,Ydieresis" 	g2="C,G,O,Q,Ccedilla,Ograve,Oacute,Ocircumflex,Otilde,Odieresis,Oslash,OE" 	k="31" />
<hkern g1="V,W,Y,Yacute,Ydieresis" 	g2="c,d,e,g,o,q,ccedilla,egrave,eacute,ecircumflex,edieresis,eth,ograve,oacute,ocircumflex,otilde,odieresis,oslash,oe" 	k="100" />
<hkern g1="V,W,Y,Yacute,Ydieresis" 	g2="t,u,ugrave,uacute,ucircumflex,udieresis" 	k="47" />
<hkern g1="V,W,Y,Yacute,Ydieresis" 	g2="v,w,y,yacute,ydieresis" 	k="6" />
<hkern g1="V,W,Y,Yacute,Ydieresis" 	g2="J" 	k="18" />
<hkern g1="V,W,Y,Yacute,Ydieresis" 	g2="A,Agrave,Aacute,Acircumflex,Atilde,Adieresis,Aring,AE" 	k="94" />
<hkern g1="V,W,Y,Yacute,Ydieresis" 	g2="period" 	k="-14" />
<hkern g1="V,W,Y,Yacute,Ydieresis" 	g2="x" 	k="33" />
<hkern g1="V,W,Y,Yacute,Ydieresis" 	g2="m,n,r,ntilde" 	k="47" />
<hkern g1="V,W,Y,Yacute,Ydieresis" 	g2="s" 	k="33" />
<hkern g1="V,W,Y,Yacute,Ydieresis" 	g2="z" 	k="33" />
<hkern g1="V,W,Y,Yacute,Ydieresis" 	g2="ampersand" 	k="-41" />
<hkern g1="V,W,Y,Yacute,Ydieresis" 	g2="a,agrave,aacute,acircumflex,atilde,adieresis,aring,ae" 	k="106" />
<hkern g1="V,W,Y,Yacute,Ydieresis" 	g2="igrave,iacute,icircumflex,idieresis" 	k="16" />
<hkern g1="V,W,Y,Yacute,Ydieresis" 	g2="p" 	k="43" />
<hkern g1="K,X" 	g2="C,G,O,Q,Ccedilla,Ograve,Oacute,Ocircumflex,Otilde,Odieresis,Oslash,OE" 	k="47" />
<hkern g1="c,ccedilla" 	g2="C,G,O,Q,Ccedilla,Ograve,Oacute,Ocircumflex,Otilde,Odieresis,Oslash,OE" 	k="41" />
<hkern g1="c,ccedilla" 	g2="a,agrave,aacute,acircumflex,atilde,adieresis,aring,ae" 	k="59" />
<hkern g1="c,ccedilla" 	g2="c,d,e,g,o,q,ccedilla,egrave,eacute,ecircumflex,edieresis,eth,ograve,oacute,ocircumflex,otilde,odieresis,oslash,oe" 	k="51" />
<hkern g1="c,ccedilla" 	g2="V,W,Y,Yacute,Ydieresis" 	k="23" />
<hkern g1="f" 	g2="C,G,O,Q,Ccedilla,Ograve,Oacute,Ocircumflex,Otilde,Odieresis,Oslash,OE" 	k="-47" />
<hkern g1="f" 	g2="a,agrave,aacute,acircumflex,atilde,adieresis,aring,ae" 	k="72" />
<hkern g1="f" 	g2="c,d,e,g,o,q,ccedilla,egrave,eacute,ecircumflex,edieresis,eth,ograve,oacute,ocircumflex,otilde,odieresis,oslash,oe" 	k="20" />
<hkern g1="f" 	g2="V,W,Y,Yacute,Ydieresis" 	k="-47" />
<hkern g1="f" 	g2="B,D,E,F,H,I,K,L,M,N,P,R,Egrave,Eacute,Ecircumflex,Edieresis,Igrave,Iacute,Icircumflex,Idieresis,Eth,Ntilde,Thorn" 	k="-51" />
<hkern g1="f" 	g2="J" 	k="66" />
<hkern g1="f" 	g2="T" 	k="-199" />
<hkern g1="f" 	g2="U,Ugrave,Uacute,Ucircumflex,Udieresis" 	k="-29" />
<hkern g1="f" 	g2="f,germandbls,uniFB01,uniFB02" 	k="-16" />
<hkern g1="f" 	g2="v,w,y,yacute,ydieresis" 	k="-61" />
<hkern g1="f" 	g2="period" 	k="-29" />
<hkern g1="f" 	g2="A,Agrave,Aacute,Acircumflex,Atilde,Adieresis,Aring,AE" 	k="12" />
<hkern g1="f" 	g2="b,h,k,l,thorn" 	k="-18" />
<hkern g1="f" 	g2="t,u,ugrave,uacute,ucircumflex,udieresis" 	k="-12" />
<hkern g1="u,igrave,iacute,icircumflex,idieresis,ugrave,uacute,ucircumflex,udieresis" 	g2="C,G,O,Q,Ccedilla,Ograve,Oacute,Ocircumflex,Otilde,Odieresis,Oslash,OE" 	k="53" />
<hkern g1="u,igrave,iacute,icircumflex,idieresis,ugrave,uacute,ucircumflex,udieresis" 	g2="V,W,Y,Yacute,Ydieresis" 	k="16" />
<hkern g1="u,igrave,iacute,icircumflex,idieresis,ugrave,uacute,ucircumflex,udieresis" 	g2="J" 	k="12" />
<hkern g1="u,igrave,iacute,icircumflex,idieresis,ugrave,uacute,ucircumflex,udieresis" 	g2="T" 	k="102" />
<hkern g1="g,j" 	g2="V,W,Y,Yacute,Ydieresis" 	k="6" />
<hkern g1="g,j" 	g2="T" 	k="88" />
<hkern g1="d,l,uniFB02" 	g2="J" 	k="16" />
<hkern g1="a,h,m,n,agrave,aacute,acircumflex,atilde,adieresis,aring,ntilde" 	g2="C,G,O,Q,Ccedilla,Ograve,Oacute,Ocircumflex,Otilde,Odieresis,Oslash,OE" 	k="12" />
<hkern g1="a,h,m,n,agrave,aacute,acircumflex,atilde,adieresis,aring,ntilde" 	g2="V,W,Y,Yacute,Ydieresis" 	k="74" />
<hkern g1="a,h,m,n,agrave,aacute,acircumflex,atilde,adieresis,aring,ntilde" 	g2="J" 	k="80" />
<hkern g1="a,h,m,n,agrave,aacute,acircumflex,atilde,adieresis,aring,ntilde" 	g2="T" 	k="102" />
<hkern g1="a,h,m,n,agrave,aacute,acircumflex,atilde,adieresis,aring,ntilde" 	g2="v,w,y,yacute,ydieresis" 	k="43" />
<hkern g1="a,h,m,n,agrave,aacute,acircumflex,atilde,adieresis,aring,ntilde" 	g2="z" 	k="29" />
<hkern g1="a,h,m,n,agrave,aacute,acircumflex,atilde,adieresis,aring,ntilde" 	g2="backslash" 	k="92" />
<hkern g1="a,h,m,n,agrave,aacute,acircumflex,atilde,adieresis,aring,ntilde" 	g2="braceright" 	k="16" />
<hkern g1="b,e,o,p,egrave,eacute,ecircumflex,edieresis,ograve,oacute,ocircumflex,otilde,odieresis,oslash,thorn" 	g2="V,W,Y,Yacute,Ydieresis" 	k="100" />
<hkern g1="b,e,o,p,egrave,eacute,ecircumflex,edieresis,ograve,oacute,ocircumflex,otilde,odieresis,oslash,thorn" 	g2="J" 	k="31" />
<hkern g1="b,e,o,p,egrave,eacute,ecircumflex,edieresis,ograve,oacute,ocircumflex,otilde,odieresis,oslash,thorn" 	g2="T" 	k="152" />
<hkern g1="b,e,o,p,egrave,eacute,ecircumflex,edieresis,ograve,oacute,ocircumflex,otilde,odieresis,oslash,thorn" 	g2="f,germandbls,uniFB01,uniFB02" 	k="6" />
<hkern g1="b,e,o,p,egrave,eacute,ecircumflex,edieresis,ograve,oacute,ocircumflex,otilde,odieresis,oslash,thorn" 	g2="v,w,y,yacute,ydieresis" 	k="35" />
<hkern g1="b,e,o,p,egrave,eacute,ecircumflex,edieresis,ograve,oacute,ocircumflex,otilde,odieresis,oslash,thorn" 	g2="A,Agrave,Aacute,Acircumflex,Atilde,Adieresis,Aring,AE" 	k="57" />
<hkern g1="b,e,o,p,egrave,eacute,ecircumflex,edieresis,ograve,oacute,ocircumflex,otilde,odieresis,oslash,thorn" 	g2="z" 	k="16" />
<hkern g1="b,e,o,p,egrave,eacute,ecircumflex,edieresis,ograve,oacute,ocircumflex,otilde,odieresis,oslash,thorn" 	g2="backslash" 	k="16" />
<hkern g1="b,e,o,p,egrave,eacute,ecircumflex,edieresis,ograve,oacute,ocircumflex,otilde,odieresis,oslash,thorn" 	g2="braceright" 	k="27" />
<hkern g1="b,e,o,p,egrave,eacute,ecircumflex,edieresis,ograve,oacute,ocircumflex,otilde,odieresis,oslash,thorn" 	g2="x" 	k="61" />
<hkern g1="q" 	g2="V,W,Y,Yacute,Ydieresis" 	k="43" />
<hkern g1="q" 	g2="T" 	k="102" />
<hkern g1="r" 	g2="a,agrave,aacute,acircumflex,atilde,adieresis,aring,ae" 	k="51" />
<hkern g1="r" 	g2="V,W,Y,Yacute,Ydieresis" 	k="18" />
<hkern g1="r" 	g2="v,w,y,yacute,ydieresis" 	k="-57" />
<hkern g1="r" 	g2="A,Agrave,Aacute,Acircumflex,Atilde,Adieresis,Aring,AE" 	k="29" />
<hkern g1="s" 	g2="V,W,Y,Yacute,Ydieresis" 	k="33" />
<hkern g1="s" 	g2="T" 	k="59" />
<hkern g1="s" 	g2="v,w,y,yacute,ydieresis" 	k="6" />
<hkern g1="s" 	g2="x" 	k="12" />
<hkern g1="t" 	g2="c,d,e,g,o,q,ccedilla,egrave,eacute,ecircumflex,edieresis,eth,ograve,oacute,ocircumflex,otilde,odieresis,oslash,oe" 	k="16" />
<hkern g1="t" 	g2="V,W,Y,Yacute,Ydieresis" 	k="47" />
<hkern g1="t" 	g2="A,Agrave,Aacute,Acircumflex,Atilde,Adieresis,Aring,AE" 	k="-16" />
<hkern g1="v,w,y,yacute,ydieresis" 	g2="C,G,O,Q,Ccedilla,Ograve,Oacute,Ocircumflex,Otilde,Odieresis,Oslash,OE" 	k="16" />
<hkern g1="v,w,y,yacute,ydieresis" 	g2="a,agrave,aacute,acircumflex,atilde,adieresis,aring,ae" 	k="27" />
<hkern g1="v,w,y,yacute,ydieresis" 	g2="c,d,e,g,o,q,ccedilla,egrave,eacute,ecircumflex,edieresis,eth,ograve,oacute,ocircumflex,otilde,odieresis,oslash,oe" 	k="35" />
<hkern g1="v,w,y,yacute,ydieresis" 	g2="V,W,Y,Yacute,Ydieresis" 	k="6" />
<hkern g1="v,w,y,yacute,ydieresis" 	g2="J" 	k="39" />
<hkern g1="v,w,y,yacute,ydieresis" 	g2="T" 	k="102" />
<hkern g1="v,w,y,yacute,ydieresis" 	g2="period" 	k="31" />
<hkern g1="v,w,y,yacute,ydieresis" 	g2="A,Agrave,Aacute,Acircumflex,Atilde,Adieresis,Aring,AE" 	k="39" />
<hkern g1="v,w,y,yacute,ydieresis" 	g2="s" 	k="6" />
<hkern g1="v,w,y,yacute,ydieresis" 	g2="x" 	k="16" />
<hkern g1="v,w,y,yacute,ydieresis" 	g2="m,n,r,ntilde" 	k="-16" />
<hkern g1="k,x" 	g2="C,G,O,Q,Ccedilla,Ograve,Oacute,Ocircumflex,Otilde,Odieresis,Oslash,OE" 	k="20" />
<hkern g1="k,x" 	g2="a,agrave,aacute,acircumflex,atilde,adieresis,aring,ae" 	k="57" />
<hkern g1="k,x" 	g2="c,d,e,g,o,q,ccedilla,egrave,eacute,ecircumflex,edieresis,eth,ograve,oacute,ocircumflex,otilde,odieresis,oslash,oe" 	k="47" />
<hkern g1="k,x" 	g2="V,W,Y,Yacute,Ydieresis" 	k="33" />
<hkern g1="k,x" 	g2="U,Ugrave,Uacute,Ucircumflex,Udieresis" 	k="41" />
<hkern g1="k,x" 	g2="v,w,y,yacute,ydieresis" 	k="16" />
<hkern g1="k,x" 	g2="s" 	k="12" />
<hkern g1="z" 	g2="a,agrave,aacute,acircumflex,atilde,adieresis,aring,ae" 	k="29" />
<hkern g1="z" 	g2="c,d,e,g,o,q,ccedilla,egrave,eacute,ecircumflex,edieresis,eth,ograve,oacute,ocircumflex,otilde,odieresis,oslash,oe" 	k="16" />
<hkern g1="z" 	g2="V,W,Y,Yacute,Ydieresis" 	k="33" />
<hkern g1="z" 	g2="m,n,r,ntilde" 	k="29" />
<hkern g1="asterisk" 	g2="J" 	k="-10" />
<hkern g1="bracketleft" 	g2="C,G,O,Q,Ccedilla,Ograve,Oacute,Ocircumflex,Otilde,Odieresis,Oslash,OE" 	k="39" />
<hkern g1="guilsinglright" 	g2="J" 	k="29" />
<hkern g1="hyphen" 	g2="J" 	k="53" />
<hkern g1="parenleft" 	g2="C,G,O,Q,Ccedilla,Ograve,Oacute,Ocircumflex,Otilde,Odieresis,Oslash,OE" 	k="-123" />
<hkern g1="parenleft" 	g2="a,agrave,aacute,acircumflex,atilde,adieresis,aring,ae" 	k="20" />
<hkern g1="quoteleft" 	g2="J" 	k="35" />
<hkern g1="quoteright" 	g2="J" 	k="8" />
<hkern g1="quotesingle" 	g2="J" 	k="35" />
<hkern g1="slash" 	g2="J" 	k="66" />
<hkern g1="slash" 	g2="C,G,O,Q,Ccedilla,Ograve,Oacute,Ocircumflex,Otilde,Odieresis,Oslash,OE" 	k="41" />
<hkern g1="slash" 	g2="a,agrave,aacute,acircumflex,atilde,adieresis,aring,ae" 	k="23" />
<hkern g1="trademark" 	g2="J" 	k="27" />
</font>
</defs></svg> 